{
"type": "FeatureCollection",
                                                                                
"features": [
{ "type": "Feature", "properties": { "Name": "84061R003", "Description": "" }, "geometry": { "type": "Polygon", "coordinates": [ [ [ -111.279, 40.7902, 0.0 ], [ -111.2799, 40.7907, 0.0 ], [ -111.2824, 40.7917, 0.0 ], [ -111.2832, 40.7922, 0.0 ], [ -111.2846, 40.7926, 0.0 ], [ -111.2849, 40.7928, 0.0 ], [ -111.2854, 40.7935, 0.0 ], [ -111.2861, 40.794, 0.0 ], [ -111.2879, 40.7945, 0.0 ], [ -111.2881, 40.7945, 0.0 ], [ -111.2893, 40.7941, 0.0 ], [ -111.2904, 40.794, 0.0 ], [ -111.2921, 40.7936, 0.0 ], [ -111.2931, 40.7935, 0.0 ], [ -111.2942, 40.7938, 0.0 ], [ -111.2946, 40.7938, 0.0 ], [ -111.2949, 40.7937, 0.0 ], [ -111.2957, 40.7935, 0.0 ], [ -111.2964, 40.7933, 0.0 ], [ -111.298, 40.7932, 0.0 ], [ -111.2997, 40.7929, 0.0 ], [ -111.3, 40.7929, 0.0 ], [ -111.302, 40.7924, 0.0 ], [ -111.3026, 40.7923, 0.0 ], [ -111.3034, 40.7919, 0.0 ], [ -111.3043, 40.7912, 0.0 ], [ -111.3049, 40.7907, 0.0 ], [ -111.3058, 40.7906, 0.0 ], [ -111.308, 40.7908, 0.0 ], [ -111.3091, 40.7908, 0.0 ], [ -111.3103, 40.7907, 0.0 ], [ -111.3121, 40.7902, 0.0 ], [ -111.3132, 40.7901, 0.0 ], [ -111.3139, 40.7899, 0.0 ], [ -111.3143, 40.7898, 0.0 ], [ -111.3156, 40.7898, 0.0 ], [ -111.3185, 40.7899, 0.0 ], [ -111.3207, 40.7896, 0.0 ], [ -111.3219, 40.7894, 0.0 ], [ -111.3229, 40.7891, 0.0 ], [ -111.3245, 40.789, 0.0 ], [ -111.3248, 40.789, 0.0 ], [ -111.3271, 40.7887, 0.0 ], [ -111.3279, 40.7884, 0.0 ], [ -111.3292, 40.7882, 0.0 ], [ -111.3299, 40.7879, 0.0 ], [ -111.3305, 40.7876, 0.0 ], [ -111.3318, 40.7871, 0.0 ], [ -111.3325, 40.7867, 0.0 ], [ -111.3332, 40.7863, 0.0 ], [ -111.3334, 40.7861, 0.0 ], [ -111.3338, 40.7859, 0.0 ], [ -111.3345, 40.7858, 0.0 ], [ -111.3352, 40.7855, 0.0 ], [ -111.3364, 40.7854, 0.0 ], [ -111.3371, 40.7851, 0.0 ], [ -111.3375, 40.7849, 0.0 ], [ -111.3379, 40.7847, 0.0 ], [ -111.3385, 40.7846, 0.0 ], [ -111.339, 40.7843, 0.0 ], [ -111.3395, 40.7841, 0.0 ], [ -111.3423, 40.7836, 0.0 ], [ -111.345, 40.7827, 0.0 ], [ -111.3463, 40.7821, 0.0 ], [ -111.3486, 40.7817, 0.0 ], [ -111.3509, 40.7814, 0.0 ], [ -111.3513, 40.7812, 0.0 ], [ -111.3527, 40.7805, 0.0 ], [ -111.354, 40.7801, 0.0 ], [ -111.3552, 40.7799, 0.0 ], [ -111.3564, 40.7795, 0.0 ], [ -111.3568, 40.7791, 0.0 ], [ -111.3584, 40.7781, 0.0 ], [ -111.3586, 40.7779, 0.0 ], [ -111.3591, 40.7775, 0.0 ], [ -111.3597, 40.7774, 0.0 ], [ -111.3602, 40.7771, 0.0 ], [ -111.3607, 40.7765, 0.0 ], [ -111.3616, 40.7763, 0.0 ], [ -111.3619, 40.7761, 0.0 ], [ -111.3623, 40.7758, 0.0 ], [ -111.3626, 40.7756, 0.0 ], [ -111.3632, 40.7756, 0.0 ], [ -111.3641, 40.7752, 0.0 ], [ -111.3646, 40.7749, 0.0 ], [ -111.365, 40.7747, 0.0 ], [ -111.365, 40.7745, 0.0 ], [ -111.3651, 40.7741, 0.0 ], [ -111.3654, 40.7739, 0.0 ], [ -111.3659, 40.7738, 0.0 ], [ -111.3658, 40.7737, 0.0 ], [ -111.3658, 40.7732, 0.0 ], [ -111.368, 40.7713, 0.0 ], [ -111.3696, 40.7706, 0.0 ], [ -111.3725, 40.7696, 0.0 ], [ -111.3734, 40.7691, 0.0 ], [ -111.3749, 40.7687, 0.0 ], [ -111.3758, 40.7682, 0.0 ], [ -111.3773, 40.7674, 0.0 ], [ -111.381, 40.7653, 0.0 ], [ -111.3812, 40.7652, 0.0 ], [ -111.3813, 40.7652, 0.0 ], [ -111.3812, 40.7653, 0.0 ], [ -111.3812, 40.7654, 0.0 ], [ -111.3811, 40.7656, 0.0 ], [ -111.381, 40.7657, 0.0 ], [ -111.381, 40.7658, 0.0 ], [ -111.381, 40.7659, 0.0 ], [ -111.381, 40.766, 0.0 ], [ -111.381, 40.7661, 0.0 ], [ -111.3811, 40.7663, 0.0 ], [ -111.3812, 40.7664, 0.0 ], [ -111.3814, 40.7664, 0.0 ], [ -111.3816, 40.7665, 0.0 ], [ -111.3818, 40.7665, 0.0 ], [ -111.382, 40.7665, 0.0 ], [ -111.3822, 40.7664, 0.0 ], [ -111.3824, 40.7664, 0.0 ], [ -111.3826, 40.7663, 0.0 ], [ -111.3828, 40.7662, 0.0 ], [ -111.3829, 40.7661, 0.0 ], [ -111.3831, 40.766, 0.0 ], [ -111.3832, 40.7659, 0.0 ], [ -111.3833, 40.7658, 0.0 ], [ -111.3834, 40.7656, 0.0 ], [ -111.3836, 40.7654, 0.0 ], [ -111.3838, 40.7652, 0.0 ], [ -111.384, 40.765, 0.0 ], [ -111.3842, 40.7649, 0.0 ], [ -111.3844, 40.7649, 0.0 ], [ -111.3847, 40.7649, 0.0 ], [ -111.3857, 40.7651, 0.0 ], [ -111.3858, 40.7651, 0.0 ], [ -111.386, 40.7652, 0.0 ], [ -111.3861, 40.7653, 0.0 ], [ -111.3862, 40.7655, 0.0 ], [ -111.3862, 40.7657, 0.0 ], [ -111.3862, 40.7659, 0.0 ], [ -111.3861, 40.7661, 0.0 ], [ -111.3856, 40.7676, 0.0 ], [ -111.3855, 40.7679, 0.0 ], [ -111.3854, 40.7681, 0.0 ], [ -111.3854, 40.7682, 0.0 ], [ -111.3855, 40.7683, 0.0 ], [ -111.3855, 40.7684, 0.0 ], [ -111.3856, 40.7685, 0.0 ], [ -111.3857, 40.7686, 0.0 ], [ -111.3859, 40.7686, 0.0 ], [ -111.3861, 40.7687, 0.0 ], [ -111.3863, 40.7687, 0.0 ], [ -111.3865, 40.7686, 0.0 ], [ -111.3866, 40.7686, 0.0 ], [ -111.3868, 40.7684, 0.0 ], [ -111.387, 40.7683, 0.0 ], [ -111.3872, 40.7682, 0.0 ], [ -111.3874, 40.7682, 0.0 ], [ -111.3875, 40.7682, 0.0 ], [ -111.3877, 40.7683, 0.0 ], [ -111.3879, 40.7683, 0.0 ], [ -111.388, 40.7684, 0.0 ], [ -111.3881, 40.7686, 0.0 ], [ -111.3882, 40.7687, 0.0 ], [ -111.3882, 40.7688, 0.0 ], [ -111.3882, 40.7689, 0.0 ], [ -111.3881, 40.7696, 0.0 ], [ -111.3881, 40.7705, 0.0 ], [ -111.388, 40.771, 0.0 ], [ -111.388, 40.7712, 0.0 ], [ -111.3881, 40.7717, 0.0 ], [ -111.3881, 40.7719, 0.0 ], [ -111.3881, 40.7721, 0.0 ], [ -111.388, 40.7722, 0.0 ], [ -111.3877, 40.7729, 0.0 ], [ -111.3877, 40.7731, 0.0 ], [ -111.3876, 40.7732, 0.0 ], [ -111.3876, 40.7733, 0.0 ], [ -111.3875, 40.7733, 0.0 ], [ -111.3874, 40.7734, 0.0 ], [ -111.3873, 40.7735, 0.0 ], [ -111.3872, 40.7735, 0.0 ], [ -111.3871, 40.7736, 0.0 ], [ -111.3869, 40.7736, 0.0 ], [ -111.3867, 40.7737, 0.0 ], [ -111.3865, 40.7737, 0.0 ], [ -111.3864, 40.7737, 0.0 ], [ -111.3863, 40.7738, 0.0 ], [ -111.3862, 40.7738, 0.0 ], [ -111.3861, 40.7739, 0.0 ], [ -111.386, 40.774, 0.0 ], [ -111.386, 40.7741, 0.0 ], [ -111.386, 40.7742, 0.0 ], [ -111.386, 40.7743, 0.0 ], [ -111.386, 40.7744, 0.0 ], [ -111.3861, 40.7745, 0.0 ], [ -111.3862, 40.7746, 0.0 ], [ -111.3863, 40.7747, 0.0 ], [ -111.3864, 40.7747, 0.0 ], [ -111.3867, 40.7748, 0.0 ], [ -111.3868, 40.7748, 0.0 ], [ -111.3869, 40.7749, 0.0 ], [ -111.387, 40.7749, 0.0 ], [ -111.387, 40.775, 0.0 ], [ -111.3871, 40.775, 0.0 ], [ -111.3872, 40.7751, 0.0 ], [ -111.3873, 40.7751, 0.0 ], [ -111.3873, 40.7752, 0.0 ], [ -111.3873, 40.7753, 0.0 ], [ -111.3878, 40.7759, 0.0 ], [ -111.3879, 40.776, 0.0 ], [ -111.3881, 40.7762, 0.0 ], [ -111.3883, 40.7763, 0.0 ], [ -111.3884, 40.7763, 0.0 ], [ -111.3886, 40.7764, 0.0 ], [ -111.3888, 40.7764, 0.0 ], [ -111.3893, 40.7766, 0.0 ], [ -111.3894, 40.7766, 0.0 ], [ -111.3895, 40.7767, 0.0 ], [ -111.3896, 40.7768, 0.0 ], [ -111.3897, 40.7769, 0.0 ], [ -111.3898, 40.777, 0.0 ], [ -111.39, 40.7772, 0.0 ], [ -111.3902, 40.7776, 0.0 ], [ -111.3904, 40.7778, 0.0 ], [ -111.3905, 40.778, 0.0 ], [ -111.392, 40.7793, 0.0 ], [ -111.392, 40.7795, 0.0 ], [ -111.3921, 40.7796, 0.0 ], [ -111.3922, 40.7797, 0.0 ], [ -111.3922, 40.7799, 0.0 ], [ -111.3923, 40.7802, 0.0 ], [ -111.3923, 40.7803, 0.0 ], [ -111.3923, 40.7804, 0.0 ], [ -111.3923, 40.7805, 0.0 ], [ -111.3922, 40.7806, 0.0 ], [ -111.3921, 40.7806, 0.0 ], [ -111.3921, 40.7807, 0.0 ], [ -111.392, 40.7807, 0.0 ], [ -111.3919, 40.7808, 0.0 ], [ -111.3918, 40.7808, 0.0 ], [ -111.3917, 40.7808, 0.0 ], [ -111.3916, 40.7808, 0.0 ], [ -111.3915, 40.7809, 0.0 ], [ -111.3914, 40.7809, 0.0 ], [ -111.3914, 40.781, 0.0 ], [ -111.3913, 40.781, 0.0 ], [ -111.3913, 40.7811, 0.0 ], [ -111.3912, 40.7811, 0.0 ], [ -111.3912, 40.7812, 0.0 ], [ -111.3912, 40.7813, 0.0 ], [ -111.3913, 40.7814, 0.0 ], [ -111.3916, 40.7816, 0.0 ], [ -111.3918, 40.7817, 0.0 ], [ -111.392, 40.7819, 0.0 ], [ -111.392, 40.782, 0.0 ], [ -111.3923, 40.7823, 0.0 ], [ -111.3927, 40.7828, 0.0 ], [ -111.3928, 40.7829, 0.0 ], [ -111.3929, 40.7829, 0.0 ], [ -111.3929, 40.783, 0.0 ], [ -111.393, 40.783, 0.0 ], [ -111.3939, 40.7835, 0.0 ], [ -111.3941, 40.7836, 0.0 ], [ -111.3942, 40.7837, 0.0 ], [ -111.3942, 40.7838, 0.0 ], [ -111.3943, 40.7838, 0.0 ], [ -111.3943, 40.7839, 0.0 ], [ -111.3944, 40.784, 0.0 ], [ -111.3944, 40.7841, 0.0 ], [ -111.3944, 40.7842, 0.0 ], [ -111.3944, 40.7843, 0.0 ], [ -111.3944, 40.7844, 0.0 ], [ -111.3944, 40.7846, 0.0 ], [ -111.3944, 40.7847, 0.0 ], [ -111.3944, 40.7848, 0.0 ], [ -111.3944, 40.7849, 0.0 ], [ -111.3945, 40.7849, 0.0 ], [ -111.3945, 40.785, 0.0 ], [ -111.3946, 40.785, 0.0 ], [ -111.3947, 40.785, 0.0 ], [ -111.3951, 40.7852, 0.0 ], [ -111.3952, 40.7852, 0.0 ], [ -111.3953, 40.7852, 0.0 ], [ -111.3954, 40.7852, 0.0 ], [ -111.3955, 40.7852, 0.0 ], [ -111.3955, 40.7853, 0.0 ], [ -111.3987, 40.7866, 0.0 ], [ -111.3987, 40.7867, 0.0 ], [ -111.3973, 40.7874, 0.0 ], [ -111.3972, 40.7875, 0.0 ], [ -111.3972, 40.7878, 0.0 ], [ -111.3975, 40.7879, 0.0 ], [ -111.3987, 40.7878, 0.0 ], [ -111.399, 40.7879, 0.0 ], [ -111.3995, 40.7878, 0.0 ], [ -111.4, 40.7875, 0.0 ], [ -111.4004, 40.7874, 0.0 ], [ -111.4007, 40.7875, 0.0 ], [ -111.4016, 40.7877, 0.0 ], [ -111.4019, 40.788, 0.0 ], [ -111.4019, 40.7883, 0.0 ], [ -111.4018, 40.7885, 0.0 ], [ -111.4018, 40.7888, 0.0 ], [ -111.4024, 40.7891, 0.0 ], [ -111.4028, 40.7894, 0.0 ], [ -111.4082, 40.787, 0.0 ], [ -111.4085, 40.7868, 0.0 ], [ -111.4084, 40.7854, 0.0 ], [ -111.4084, 40.7845, 0.0 ], [ -111.4084, 40.7839, 0.0 ], [ -111.4083, 40.7825, 0.0 ], [ -111.4082, 40.7794, 0.0 ], [ -111.408, 40.7787, 0.0 ], [ -111.4074, 40.7783, 0.0 ], [ -111.4073, 40.7781, 0.0 ], [ -111.4073, 40.7778, 0.0 ], [ -111.4072, 40.7777, 0.0 ], [ -111.4073, 40.777, 0.0 ], [ -111.4078, 40.7765, 0.0 ], [ -111.4078, 40.776, 0.0 ], [ -111.4082, 40.776, 0.0 ], [ -111.4083, 40.776, 0.0 ], [ -111.4084, 40.776, 0.0 ], [ -111.4078, 40.7737, 0.0 ], [ -111.4077, 40.7733, 0.0 ], [ -111.4077, 40.773, 0.0 ], [ -111.4075, 40.7727, 0.0 ], [ -111.4073, 40.7724, 0.0 ], [ -111.4072, 40.7723, 0.0 ], [ -111.407, 40.7721, 0.0 ], [ -111.4069, 40.772, 0.0 ], [ -111.4068, 40.7719, 0.0 ], [ -111.4065, 40.7716, 0.0 ], [ -111.4062, 40.7714, 0.0 ], [ -111.4059, 40.7712, 0.0 ], [ -111.4056, 40.771, 0.0 ], [ -111.4053, 40.7709, 0.0 ], [ -111.4049, 40.7707, 0.0 ], [ -111.4045, 40.7706, 0.0 ], [ -111.404, 40.7705, 0.0 ], [ -111.4039, 40.7705, 0.0 ], [ -111.4036, 40.7705, 0.0 ], [ -111.4035, 40.7704, 0.0 ], [ -111.4032, 40.7704, 0.0 ], [ -111.4025, 40.7703, 0.0 ], [ -111.4022, 40.7702, 0.0 ], [ -111.402, 40.7701, 0.0 ], [ -111.4018, 40.77, 0.0 ], [ -111.4016, 40.7699, 0.0 ], [ -111.4014, 40.7697, 0.0 ], [ -111.4012, 40.7695, 0.0 ], [ -111.401, 40.7693, 0.0 ], [ -111.4009, 40.7691, 0.0 ], [ -111.4008, 40.7689, 0.0 ], [ -111.4007, 40.7683, 0.0 ], [ -111.4006, 40.7678, 0.0 ], [ -111.4005, 40.7675, 0.0 ], [ -111.4003, 40.7673, 0.0 ], [ -111.4002, 40.7671, 0.0 ], [ -111.4001, 40.7669, 0.0 ], [ -111.3999, 40.7667, 0.0 ], [ -111.3992, 40.7662, 0.0 ], [ -111.3989, 40.7659, 0.0 ], [ -111.3987, 40.7655, 0.0 ], [ -111.3984, 40.7652, 0.0 ], [ -111.3978, 40.764, 0.0 ], [ -111.3976, 40.7637, 0.0 ], [ -111.3973, 40.7633, 0.0 ], [ -111.3972, 40.7631, 0.0 ], [ -111.397, 40.763, 0.0 ], [ -111.3964, 40.7627, 0.0 ], [ -111.3959, 40.7624, 0.0 ], [ -111.3942, 40.7615, 0.0 ], [ -111.394, 40.7614, 0.0 ], [ -111.3939, 40.7613, 0.0 ], [ -111.3933, 40.761, 0.0 ], [ -111.393, 40.7608, 0.0 ], [ -111.3928, 40.7606, 0.0 ], [ -111.3926, 40.7604, 0.0 ], [ -111.3924, 40.7602, 0.0 ], [ -111.3922, 40.7598, 0.0 ], [ -111.3916, 40.7589, 0.0 ], [ -111.3913, 40.7586, 0.0 ], [ -111.3911, 40.7583, 0.0 ], [ -111.391, 40.7582, 0.0 ], [ -111.3908, 40.7581, 0.0 ], [ -111.3905, 40.7578, 0.0 ], [ -111.3903, 40.7577, 0.0 ], [ -111.39, 40.7576, 0.0 ], [ -111.3895, 40.7574, 0.0 ], [ -111.3881, 40.7569, 0.0 ], [ -111.3878, 40.7568, 0.0 ], [ -111.3873, 40.7566, 0.0 ], [ -111.3871, 40.7565, 0.0 ], [ -111.3864, 40.7563, 0.0 ], [ -111.3849, 40.7556, 0.0 ], [ -111.3844, 40.7554, 0.0 ], [ -111.3836, 40.7551, 0.0 ], [ -111.3832, 40.755, 0.0 ], [ -111.3828, 40.7549, 0.0 ], [ -111.3826, 40.7548, 0.0 ], [ -111.382, 40.7546, 0.0 ], [ -111.3819, 40.7546, 0.0 ], [ -111.3808, 40.7544, 0.0 ], [ -111.3805, 40.7543, 0.0 ], [ -111.3801, 40.7542, 0.0 ], [ -111.3797, 40.7542, 0.0 ], [ -111.3793, 40.754, 0.0 ], [ -111.3791, 40.754, 0.0 ], [ -111.3786, 40.7538, 0.0 ], [ -111.3782, 40.7536, 0.0 ], [ -111.3761, 40.7529, 0.0 ], [ -111.376, 40.7528, 0.0 ], [ -111.3726, 40.7517, 0.0 ], [ -111.3725, 40.7516, 0.0 ], [ -111.3719, 40.7514, 0.0 ], [ -111.3715, 40.7513, 0.0 ], [ -111.37, 40.7508, 0.0 ], [ -111.3696, 40.75, 0.0 ], [ -111.3696, 40.7497, 0.0 ], [ -111.3691, 40.7489, 0.0 ], [ -111.3687, 40.7485, 0.0 ], [ -111.3683, 40.7482, 0.0 ], [ -111.3674, 40.7473, 0.0 ], [ -111.3673, 40.747, 0.0 ], [ -111.367, 40.7468, 0.0 ], [ -111.3664, 40.7461, 0.0 ], [ -111.3663, 40.7459, 0.0 ], [ -111.3661, 40.7456, 0.0 ], [ -111.3657, 40.7453, 0.0 ], [ -111.3654, 40.7452, 0.0 ], [ -111.3648, 40.7448, 0.0 ], [ -111.3643, 40.7441, 0.0 ], [ -111.3641, 40.7438, 0.0 ], [ -111.3638, 40.7434, 0.0 ], [ -111.3632, 40.7426, 0.0 ], [ -111.363, 40.7423, 0.0 ], [ -111.3629, 40.742, 0.0 ], [ -111.3627, 40.7417, 0.0 ], [ -111.362, 40.7411, 0.0 ], [ -111.3617, 40.7408, 0.0 ], [ -111.3617, 40.7407, 0.0 ], [ -111.3613, 40.7401, 0.0 ], [ -111.361, 40.7397, 0.0 ], [ -111.3607, 40.7394, 0.0 ], [ -111.3606, 40.7393, 0.0 ], [ -111.3602, 40.7391, 0.0 ], [ -111.3599, 40.7389, 0.0 ], [ -111.3596, 40.7385, 0.0 ], [ -111.3596, 40.7381, 0.0 ], [ -111.3601, 40.7373, 0.0 ], [ -111.3618, 40.7373, 0.0 ], [ -111.3622, 40.7373, 0.0 ], [ -111.3627, 40.7372, 0.0 ], [ -111.3626, 40.737, 0.0 ], [ -111.3631, 40.7363, 0.0 ], [ -111.3622, 40.7357, 0.0 ], [ -111.3621, 40.7356, 0.0 ], [ -111.3617, 40.7353, 0.0 ], [ -111.3613, 40.7351, 0.0 ], [ -111.3604, 40.7348, 0.0 ], [ -111.3592, 40.7343, 0.0 ], [ -111.3588, 40.734, 0.0 ], [ -111.3582, 40.7331, 0.0 ], [ -111.3577, 40.7327, 0.0 ], [ -111.3572, 40.7325, 0.0 ], [ -111.357, 40.7325, 0.0 ], [ -111.3559, 40.7322, 0.0 ], [ -111.3553, 40.7319, 0.0 ], [ -111.3549, 40.7316, 0.0 ], [ -111.3548, 40.7313, 0.0 ], [ -111.3544, 40.731, 0.0 ], [ -111.3536, 40.7308, 0.0 ], [ -111.3531, 40.7304, 0.0 ], [ -111.3531, 40.7298, 0.0 ], [ -111.353, 40.7297, 0.0 ], [ -111.3529, 40.7295, 0.0 ], [ -111.3522, 40.7293, 0.0 ], [ -111.352, 40.7291, 0.0 ], [ -111.352, 40.7287, 0.0 ], [ -111.352, 40.7284, 0.0 ], [ -111.3521, 40.7281, 0.0 ], [ -111.3521, 40.7278, 0.0 ], [ -111.3522, 40.7272, 0.0 ], [ -111.352, 40.7269, 0.0 ], [ -111.3518, 40.7265, 0.0 ], [ -111.3509, 40.7259, 0.0 ], [ -111.3509, 40.7258, 0.0 ], [ -111.351, 40.7254, 0.0 ], [ -111.3512, 40.7251, 0.0 ], [ -111.3519, 40.7234, 0.0 ], [ -111.352, 40.723, 0.0 ], [ -111.3521, 40.7229, 0.0 ], [ -111.3521, 40.7221, 0.0 ], [ -111.352, 40.7219, 0.0 ], [ -111.3515, 40.7216, 0.0 ], [ -111.3513, 40.7215, 0.0 ], [ -111.3513, 40.7208, 0.0 ], [ -111.3514, 40.7206, 0.0 ], [ -111.352, 40.7202, 0.0 ], [ -111.352, 40.7195, 0.0 ], [ -111.3524, 40.7191, 0.0 ], [ -111.3528, 40.7188, 0.0 ], [ -111.3529, 40.7186, 0.0 ], [ -111.353, 40.7183, 0.0 ], [ -111.3526, 40.7175, 0.0 ], [ -111.3526, 40.7171, 0.0 ], [ -111.3525, 40.7162, 0.0 ], [ -111.3524, 40.7161, 0.0 ], [ -111.3524, 40.7157, 0.0 ], [ -111.3517, 40.715, 0.0 ], [ -111.3507, 40.7145, 0.0 ], [ -111.3504, 40.7141, 0.0 ], [ -111.3503, 40.7137, 0.0 ], [ -111.3503, 40.7127, 0.0 ], [ -111.3502, 40.7124, 0.0 ], [ -111.3501, 40.7122, 0.0 ], [ -111.35, 40.7119, 0.0 ], [ -111.3499, 40.7117, 0.0 ], [ -111.3499, 40.7115, 0.0 ], [ -111.3498, 40.7113, 0.0 ], [ -111.3495, 40.7103, 0.0 ], [ -111.3495, 40.7096, 0.0 ], [ -111.3496, 40.7091, 0.0 ], [ -111.3497, 40.7091, 0.0 ], [ -111.3497, 40.7084, 0.0 ], [ -111.3496, 40.7079, 0.0 ], [ -111.3494, 40.7078, 0.0 ], [ -111.3492, 40.7077, 0.0 ], [ -111.3484, 40.7073, 0.0 ], [ -111.3478, 40.7069, 0.0 ], [ -111.3476, 40.7069, 0.0 ], [ -111.3476, 40.7067, 0.0 ], [ -111.347, 40.706, 0.0 ], [ -111.3466, 40.7057, 0.0 ], [ -111.3463, 40.7055, 0.0 ], [ -111.3455, 40.7051, 0.0 ], [ -111.3451, 40.705, 0.0 ], [ -111.3451, 40.7049, 0.0 ], [ -111.3445, 40.7036, 0.0 ], [ -111.3443, 40.7033, 0.0 ], [ -111.3442, 40.7032, 0.0 ], [ -111.344, 40.7031, 0.0 ], [ -111.3432, 40.7033, 0.0 ], [ -111.3429, 40.7033, 0.0 ], [ -111.3421, 40.7031, 0.0 ], [ -111.3417, 40.7028, 0.0 ], [ -111.3414, 40.7025, 0.0 ], [ -111.3412, 40.7017, 0.0 ], [ -111.3404, 40.7017, 0.0 ], [ -111.3397, 40.7018, 0.0 ], [ -111.3392, 40.7017, 0.0 ], [ -111.3387, 40.7014, 0.0 ], [ -111.338, 40.7013, 0.0 ], [ -111.3375, 40.7009, 0.0 ], [ -111.3368, 40.7007, 0.0 ], [ -111.3362, 40.7006, 0.0 ], [ -111.3356, 40.7007, 0.0 ], [ -111.3343, 40.7008, 0.0 ], [ -111.3333, 40.701, 0.0 ], [ -111.3321, 40.7014, 0.0 ], [ -111.3316, 40.7014, 0.0 ], [ -111.3301, 40.701, 0.0 ], [ -111.3291, 40.701, 0.0 ], [ -111.3281, 40.7012, 0.0 ], [ -111.3274, 40.7013, 0.0 ], [ -111.3271, 40.7014, 0.0 ], [ -111.3229, 40.7019, 0.0 ], [ -111.3223, 40.7019, 0.0 ], [ -111.3213, 40.7023, 0.0 ], [ -111.3201, 40.7023, 0.0 ], [ -111.3194, 40.7023, 0.0 ], [ -111.3183, 40.7026, 0.0 ], [ -111.318, 40.7027, 0.0 ], [ -111.3171, 40.7028, 0.0 ], [ -111.3167, 40.703, 0.0 ], [ -111.3161, 40.703, 0.0 ], [ -111.3157, 40.7031, 0.0 ], [ -111.3155, 40.7033, 0.0 ], [ -111.3155, 40.7036, 0.0 ], [ -111.3153, 40.7037, 0.0 ], [ -111.3151, 40.704, 0.0 ], [ -111.3147, 40.7042, 0.0 ], [ -111.3135, 40.7045, 0.0 ], [ -111.313, 40.7048, 0.0 ], [ -111.3127, 40.705, 0.0 ], [ -111.3118, 40.7051, 0.0 ], [ -111.3111, 40.7053, 0.0 ], [ -111.3106, 40.7053, 0.0 ], [ -111.31, 40.7052, 0.0 ], [ -111.3092, 40.7053, 0.0 ], [ -111.3085, 40.7057, 0.0 ], [ -111.3083, 40.7057, 0.0 ], [ -111.3081, 40.7061, 0.0 ], [ -111.3068, 40.7061, 0.0 ], [ -111.3066, 40.7061, 0.0 ], [ -111.3066, 40.7057, 0.0 ], [ -111.305, 40.7057, 0.0 ], [ -111.304, 40.7057, 0.0 ], [ -111.3025, 40.7057, 0.0 ], [ -111.3011, 40.7057, 0.0 ], [ -111.3004, 40.7057, 0.0 ], [ -111.3002, 40.7057, 0.0 ], [ -111.3002, 40.706, 0.0 ], [ -111.3003, 40.7072, 0.0 ], [ -111.3003, 40.7077, 0.0 ], [ -111.3003, 40.7089, 0.0 ], [ -111.3003, 40.7092, 0.0 ], [ -111.3003, 40.7113, 0.0 ], [ -111.3003, 40.7115, 0.0 ], [ -111.3003, 40.7126, 0.0 ], [ -111.3003, 40.7127, 0.0 ], [ -111.3002, 40.7128, 0.0 ], [ -111.3001, 40.7128, 0.0 ], [ -111.3002, 40.713, 0.0 ], [ -111.3003, 40.7131, 0.0 ], [ -111.3003, 40.7133, 0.0 ], [ -111.3003, 40.7138, 0.0 ], [ -111.3003, 40.7142, 0.0 ], [ -111.3003, 40.7148, 0.0 ], [ -111.3003, 40.715, 0.0 ], [ -111.3003, 40.7164, 0.0 ], [ -111.3003, 40.7166, 0.0 ], [ -111.3003, 40.7177, 0.0 ], [ -111.3002, 40.7184, 0.0 ], [ -111.3003, 40.7192, 0.0 ], [ -111.3003, 40.7199, 0.0 ], [ -111.3003, 40.7202, 0.0 ], [ -111.3003, 40.7206, 0.0 ], [ -111.3003, 40.7225, 0.0 ], [ -111.3003, 40.7232, 0.0 ], [ -111.3003, 40.7238, 0.0 ], [ -111.2993, 40.7238, 0.0 ], [ -111.2955, 40.7239, 0.0 ], [ -111.2953, 40.7239, 0.0 ], [ -111.2931, 40.7239, 0.0 ], [ -111.2931, 40.7253, 0.0 ], [ -111.2932, 40.7293, 0.0 ], [ -111.2932, 40.7294, 0.0 ], [ -111.2932, 40.7295, 0.0 ], [ -111.2931, 40.7296, 0.0 ], [ -111.2935, 40.7296, 0.0 ], [ -111.2947, 40.7299, 0.0 ], [ -111.2952, 40.7304, 0.0 ], [ -111.2954, 40.7306, 0.0 ], [ -111.2956, 40.7307, 0.0 ], [ -111.2959, 40.7308, 0.0 ], [ -111.2967, 40.7307, 0.0 ], [ -111.297, 40.7307, 0.0 ], [ -111.2972, 40.7307, 0.0 ], [ -111.2978, 40.7309, 0.0 ], [ -111.2981, 40.731, 0.0 ], [ -111.2984, 40.731, 0.0 ], [ -111.2985, 40.731, 0.0 ], [ -111.3003, 40.7311, 0.0 ], [ -111.2993, 40.7311, 0.0 ], [ -111.2981, 40.7311, 0.0 ], [ -111.2984, 40.7322, 0.0 ], [ -111.2985, 40.7333, 0.0 ], [ -111.2994, 40.7341, 0.0 ], [ -111.2997, 40.7346, 0.0 ], [ -111.3, 40.7357, 0.0 ], [ -111.3004, 40.7385, 0.0 ], [ -111.3011, 40.7394, 0.0 ], [ -111.3012, 40.7397, 0.0 ], [ -111.3011, 40.7403, 0.0 ], [ -111.3004, 40.7413, 0.0 ], [ -111.3001, 40.742, 0.0 ], [ -111.2999, 40.7428, 0.0 ], [ -111.2999, 40.7435, 0.0 ], [ -111.3, 40.7437, 0.0 ], [ -111.3005, 40.7442, 0.0 ], [ -111.3006, 40.7442, 0.0 ], [ -111.2996, 40.7454, 0.0 ], [ -111.2993, 40.746, 0.0 ], [ -111.2987, 40.7466, 0.0 ], [ -111.2978, 40.7482, 0.0 ], [ -111.2973, 40.7494, 0.0 ], [ -111.2972, 40.7499, 0.0 ], [ -111.2971, 40.7504, 0.0 ], [ -111.297, 40.7514, 0.0 ], [ -111.297, 40.753, 0.0 ], [ -111.2971, 40.7533, 0.0 ], [ -111.2971, 40.7537, 0.0 ], [ -111.2971, 40.7541, 0.0 ], [ -111.2968, 40.7544, 0.0 ], [ -111.2967, 40.7546, 0.0 ], [ -111.2965, 40.7548, 0.0 ], [ -111.2964, 40.7548, 0.0 ], [ -111.2962, 40.7551, 0.0 ], [ -111.2962, 40.7565, 0.0 ], [ -111.2964, 40.7572, 0.0 ], [ -111.2965, 40.7575, 0.0 ], [ -111.2965, 40.759, 0.0 ], [ -111.2969, 40.7602, 0.0 ], [ -111.297, 40.7608, 0.0 ], [ -111.2969, 40.7611, 0.0 ], [ -111.2972, 40.7637, 0.0 ], [ -111.2971, 40.7643, 0.0 ], [ -111.2965, 40.7656, 0.0 ], [ -111.2964, 40.7666, 0.0 ], [ -111.2962, 40.767, 0.0 ], [ -111.2962, 40.7675, 0.0 ], [ -111.2964, 40.7677, 0.0 ], [ -111.2965, 40.7683, 0.0 ], [ -111.2966, 40.7697, 0.0 ], [ -111.2967, 40.7707, 0.0 ], [ -111.2968, 40.7727, 0.0 ], [ -111.2965, 40.7735, 0.0 ], [ -111.2959, 40.7741, 0.0 ], [ -111.2957, 40.7744, 0.0 ], [ -111.2944, 40.7766, 0.0 ], [ -111.2933, 40.7766, 0.0 ], [ -111.2922, 40.7768, 0.0 ], [ -111.2915, 40.7773, 0.0 ], [ -111.2907, 40.7779, 0.0 ], [ -111.2893, 40.7784, 0.0 ], [ -111.2876, 40.7788, 0.0 ], [ -111.2862, 40.7795, 0.0 ], [ -111.2851, 40.7802, 0.0 ], [ -111.2846, 40.7807, 0.0 ], [ -111.2845, 40.7809, 0.0 ], [ -111.2846, 40.7811, 0.0 ], [ -111.2851, 40.7811, 0.0 ], [ -111.286, 40.7808, 0.0 ], [ -111.2878, 40.7804, 0.0 ], [ -111.2894, 40.7803, 0.0 ], [ -111.2901, 40.7804, 0.0 ], [ -111.2904, 40.7806, 0.0 ], [ -111.2903, 40.7809, 0.0 ], [ -111.29, 40.7816, 0.0 ], [ -111.2894, 40.7824, 0.0 ], [ -111.2887, 40.783, 0.0 ], [ -111.2879, 40.7836, 0.0 ], [ -111.2863, 40.7843, 0.0 ], [ -111.2849, 40.7846, 0.0 ], [ -111.2834, 40.785, 0.0 ], [ -111.2819, 40.7855, 0.0 ], [ -111.2815, 40.7855, 0.0 ], [ -111.2806, 40.7853, 0.0 ], [ -111.2798, 40.7854, 0.0 ], [ -111.2792, 40.7856, 0.0 ], [ -111.2786, 40.7858, 0.0 ], [ -111.2775, 40.7861, 0.0 ], [ -111.2766, 40.7862, 0.0 ], [ -111.2758, 40.7865, 0.0 ], [ -111.2755, 40.7868, 0.0 ], [ -111.2755, 40.7872, 0.0 ], [ -111.2757, 40.7875, 0.0 ], [ -111.2762, 40.7879, 0.0 ], [ -111.2765, 40.7881, 0.0 ], [ -111.2778, 40.7882, 0.0 ], [ -111.2782, 40.7885, 0.0 ], [ -111.2782, 40.7888, 0.0 ], [ -111.2781, 40.7889, 0.0 ], [ -111.2781, 40.7892, 0.0 ], [ -111.2789, 40.7899, 0.0 ], [ -111.279, 40.7902, 0.0 ] ] ] } }
,
{ "type": "Feature", "properties": { "Name": "84036R003", "Description": "" }, "geometry": { "type": "Polygon", "coordinates": [ [ [ -111.32, 40.7023, 0.0 ], [ -111.3193, 40.7018, 0.0 ], [ -111.3182, 40.7011, 0.0 ], [ -111.318, 40.701, 0.0 ], [ -111.3179, 40.7009, 0.0 ], [ -111.3178, 40.7008, 0.0 ], [ -111.318, 40.7007, 0.0 ], [ -111.3188, 40.7005, 0.0 ], [ -111.319, 40.7004, 0.0 ], [ -111.3192, 40.7002, 0.0 ], [ -111.3193, 40.7001, 0.0 ], [ -111.3193, 40.7, 0.0 ], [ -111.3194, 40.6998, 0.0 ], [ -111.3194, 40.6987, 0.0 ], [ -111.3194, 40.6924, 0.0 ], [ -111.3194, 40.6897, 0.0 ], [ -111.3194, 40.6881, 0.0 ], [ -111.3194, 40.6855, 0.0 ], [ -111.3194, 40.6808, 0.0 ], [ -111.3188, 40.6807, 0.0 ], [ -111.3183, 40.6804, 0.0 ], [ -111.3179, 40.68, 0.0 ], [ -111.3172, 40.6794, 0.0 ], [ -111.3172, 40.6786, 0.0 ], [ -111.3173, 40.6785, 0.0 ], [ -111.3174, 40.6783, 0.0 ], [ -111.3174, 40.678, 0.0 ], [ -111.317, 40.6778, 0.0 ], [ -111.317, 40.6774, 0.0 ], [ -111.3169, 40.6773, 0.0 ], [ -111.3163, 40.6772, 0.0 ], [ -111.316, 40.6769, 0.0 ], [ -111.3158, 40.6768, 0.0 ], [ -111.3154, 40.6769, 0.0 ], [ -111.315, 40.6767, 0.0 ], [ -111.3149, 40.677, 0.0 ], [ -111.3145, 40.677, 0.0 ], [ -111.3142, 40.677, 0.0 ], [ -111.3141, 40.6769, 0.0 ], [ -111.3141, 40.6766, 0.0 ], [ -111.3137, 40.6766, 0.0 ], [ -111.3135, 40.677, 0.0 ], [ -111.3134, 40.6774, 0.0 ], [ -111.3132, 40.6774, 0.0 ], [ -111.3131, 40.6773, 0.0 ], [ -111.3131, 40.677, 0.0 ], [ -111.313, 40.6769, 0.0 ], [ -111.3127, 40.6768, 0.0 ], [ -111.3127, 40.6766, 0.0 ], [ -111.3129, 40.6765, 0.0 ], [ -111.313, 40.6763, 0.0 ], [ -111.3121, 40.6758, 0.0 ], [ -111.3118, 40.6758, 0.0 ], [ -111.3113, 40.6759, 0.0 ], [ -111.3111, 40.6758, 0.0 ], [ -111.3111, 40.6753, 0.0 ], [ -111.3109, 40.6753, 0.0 ], [ -111.3101, 40.6751, 0.0 ], [ -111.3098, 40.6749, 0.0 ], [ -111.3095, 40.6747, 0.0 ], [ -111.3086, 40.6747, 0.0 ], [ -111.3082, 40.6746, 0.0 ], [ -111.3074, 40.6747, 0.0 ], [ -111.3072, 40.6747, 0.0 ], [ -111.3068, 40.6748, 0.0 ], [ -111.3065, 40.6747, 0.0 ], [ -111.3061, 40.6743, 0.0 ], [ -111.3055, 40.6741, 0.0 ], [ -111.3049, 40.6742, 0.0 ], [ -111.3044, 40.6739, 0.0 ], [ -111.3037, 40.674, 0.0 ], [ -111.3032, 40.6736, 0.0 ], [ -111.3028, 40.6736, 0.0 ], [ -111.3025, 40.6735, 0.0 ], [ -111.3024, 40.6732, 0.0 ], [ -111.3018, 40.6729, 0.0 ], [ -111.3016, 40.6726, 0.0 ], [ -111.3009, 40.6724, 0.0 ], [ -111.3006, 40.6722, 0.0 ], [ -111.3005, 40.672, 0.0 ], [ -111.3, 40.6717, 0.0 ], [ -111.2996, 40.6714, 0.0 ], [ -111.2994, 40.6713, 0.0 ], [ -111.2989, 40.6714, 0.0 ], [ -111.2985, 40.6712, 0.0 ], [ -111.2983, 40.6708, 0.0 ], [ -111.2982, 40.6705, 0.0 ], [ -111.2975, 40.6701, 0.0 ], [ -111.2974, 40.6696, 0.0 ], [ -111.2971, 40.6692, 0.0 ], [ -111.2968, 40.6689, 0.0 ], [ -111.2965, 40.6687, 0.0 ], [ -111.2961, 40.6685, 0.0 ], [ -111.2954, 40.6683, 0.0 ], [ -111.2943, 40.6674, 0.0 ], [ -111.2942, 40.6672, 0.0 ], [ -111.2939, 40.6669, 0.0 ], [ -111.2936, 40.6666, 0.0 ], [ -111.293, 40.6663, 0.0 ], [ -111.2916, 40.6654, 0.0 ], [ -111.2908, 40.6652, 0.0 ], [ -111.2904, 40.6649, 0.0 ], [ -111.2892, 40.6641, 0.0 ], [ -111.2891, 40.664, 0.0 ], [ -111.2882, 40.6636, 0.0 ], [ -111.2876, 40.663, 0.0 ], [ -111.2876, 40.6629, 0.0 ], [ -111.2877, 40.6626, 0.0 ], [ -111.2875, 40.6622, 0.0 ], [ -111.2871, 40.6619, 0.0 ], [ -111.2869, 40.6616, 0.0 ], [ -111.2863, 40.6612, 0.0 ], [ -111.2862, 40.6609, 0.0 ], [ -111.2859, 40.6607, 0.0 ], [ -111.2859, 40.6606, 0.0 ], [ -111.286, 40.6604, 0.0 ], [ -111.286, 40.6601, 0.0 ], [ -111.2856, 40.6598, 0.0 ], [ -111.2855, 40.6594, 0.0 ], [ -111.285, 40.659, 0.0 ], [ -111.285, 40.6588, 0.0 ], [ -111.285, 40.6587, 0.0 ], [ -111.2843, 40.6581, 0.0 ], [ -111.2842, 40.6578, 0.0 ], [ -111.2843, 40.6575, 0.0 ], [ -111.284, 40.657, 0.0 ], [ -111.2835, 40.6566, 0.0 ], [ -111.2832, 40.6564, 0.0 ], [ -111.283, 40.6561, 0.0 ], [ -111.283, 40.6559, 0.0 ], [ -111.2825, 40.6555, 0.0 ], [ -111.2824, 40.655, 0.0 ], [ -111.2823, 40.6547, 0.0 ], [ -111.2821, 40.6546, 0.0 ], [ -111.282, 40.6543, 0.0 ], [ -111.2815, 40.6535, 0.0 ], [ -111.2813, 40.6533, 0.0 ], [ -111.281, 40.6532, 0.0 ], [ -111.2808, 40.653, 0.0 ], [ -111.2808, 40.6524, 0.0 ], [ -111.2808, 40.6519, 0.0 ], [ -111.2817, 40.6514, 0.0 ], [ -111.2833, 40.6515, 0.0 ], [ -111.2853, 40.6514, 0.0 ], [ -111.2867, 40.6514, 0.0 ], [ -111.2874, 40.6514, 0.0 ], [ -111.2874, 40.6504, 0.0 ], [ -111.2874, 40.6463, 0.0 ], [ -111.2873, 40.6463, 0.0 ], [ -111.2866, 40.646, 0.0 ], [ -111.2864, 40.646, 0.0 ], [ -111.2859, 40.6458, 0.0 ], [ -111.2855, 40.6457, 0.0 ], [ -111.285, 40.6455, 0.0 ], [ -111.285, 40.6452, 0.0 ], [ -111.285, 40.6451, 0.0 ], [ -111.285, 40.6449, 0.0 ], [ -111.285, 40.6444, 0.0 ], [ -111.285, 40.6432, 0.0 ], [ -111.285, 40.6431, 0.0 ], [ -111.285, 40.6429, 0.0 ], [ -111.2851, 40.6427, 0.0 ], [ -111.2852, 40.6426, 0.0 ], [ -111.2852, 40.6425, 0.0 ], [ -111.2853, 40.6423, 0.0 ], [ -111.2853, 40.6419, 0.0 ], [ -111.2853, 40.6418, 0.0 ], [ -111.2852, 40.6416, 0.0 ], [ -111.2851, 40.6416, 0.0 ], [ -111.285, 40.6415, 0.0 ], [ -111.2849, 40.6415, 0.0 ], [ -111.2846, 40.6415, 0.0 ], [ -111.2833, 40.6415, 0.0 ], [ -111.2829, 40.6415, 0.0 ], [ -111.2829, 40.6399, 0.0 ], [ -111.2807, 40.6399, 0.0 ], [ -111.2807, 40.6415, 0.0 ], [ -111.2808, 40.6429, 0.0 ], [ -111.2808, 40.6431, 0.0 ], [ -111.2808, 40.6448, 0.0 ], [ -111.2808, 40.6462, 0.0 ], [ -111.2808, 40.6464, 0.0 ], [ -111.2789, 40.6464, 0.0 ], [ -111.2786, 40.6464, 0.0 ], [ -111.2787, 40.6448, 0.0 ], [ -111.2786, 40.6431, 0.0 ], [ -111.2786, 40.6421, 0.0 ], [ -111.2786, 40.6418, 0.0 ], [ -111.2786, 40.6415, 0.0 ], [ -111.2784, 40.6415, 0.0 ], [ -111.2775, 40.6415, 0.0 ], [ -111.2772, 40.6415, 0.0 ], [ -111.277, 40.6414, 0.0 ], [ -111.2768, 40.6414, 0.0 ], [ -111.2767, 40.6414, 0.0 ], [ -111.2766, 40.6413, 0.0 ], [ -111.2765, 40.6413, 0.0 ], [ -111.2765, 40.6412, 0.0 ], [ -111.2764, 40.6431, 0.0 ], [ -111.2743, 40.6431, 0.0 ], [ -111.2736, 40.6431, 0.0 ], [ -111.2733, 40.6431, 0.0 ], [ -111.2731, 40.6431, 0.0 ], [ -111.273, 40.643, 0.0 ], [ -111.2728, 40.643, 0.0 ], [ -111.2726, 40.6429, 0.0 ], [ -111.2724, 40.6428, 0.0 ], [ -111.2722, 40.6427, 0.0 ], [ -111.2719, 40.6425, 0.0 ], [ -111.2718, 40.6425, 0.0 ], [ -111.2715, 40.6424, 0.0 ], [ -111.271, 40.6421, 0.0 ], [ -111.2706, 40.642, 0.0 ], [ -111.2704, 40.6419, 0.0 ], [ -111.27, 40.6418, 0.0 ], [ -111.2696, 40.6418, 0.0 ], [ -111.2692, 40.6418, 0.0 ], [ -111.2689, 40.6419, 0.0 ], [ -111.2687, 40.6419, 0.0 ], [ -111.2685, 40.642, 0.0 ], [ -111.2682, 40.642, 0.0 ], [ -111.2679, 40.642, 0.0 ], [ -111.2676, 40.6419, 0.0 ], [ -111.2673, 40.6419, 0.0 ], [ -111.267, 40.6419, 0.0 ], [ -111.2669, 40.6418, 0.0 ], [ -111.2668, 40.6418, 0.0 ], [ -111.2666, 40.6417, 0.0 ], [ -111.2658, 40.6415, 0.0 ], [ -111.2653, 40.6412, 0.0 ], [ -111.2647, 40.6409, 0.0 ], [ -111.2645, 40.6408, 0.0 ], [ -111.2644, 40.6408, 0.0 ], [ -111.2642, 40.6409, 0.0 ], [ -111.2641, 40.641, 0.0 ], [ -111.2637, 40.6418, 0.0 ], [ -111.2633, 40.6427, 0.0 ], [ -111.2628, 40.6431, 0.0 ], [ -111.2622, 40.6433, 0.0 ], [ -111.2619, 40.6436, 0.0 ], [ -111.2614, 40.6442, 0.0 ], [ -111.2613, 40.6444, 0.0 ], [ -111.2613, 40.6514, 0.0 ], [ -111.2615, 40.6514, 0.0 ], [ -111.2615, 40.654, 0.0 ], [ -111.2517, 40.654, 0.0 ], [ -111.2419, 40.6539, 0.0 ], [ -111.242, 40.6579, 0.0 ], [ -111.2424, 40.6579, 0.0 ], [ -111.2531, 40.6578, 0.0 ], [ -111.2534, 40.6651, 0.0 ], [ -111.2566, 40.6652, 0.0 ], [ -111.2567, 40.665, 0.0 ], [ -111.2597, 40.6655, 0.0 ], [ -111.2606, 40.6656, 0.0 ], [ -111.2615, 40.6658, 0.0 ], [ -111.2619, 40.6658, 0.0 ], [ -111.2618, 40.6675, 0.0 ], [ -111.2617, 40.6692, 0.0 ], [ -111.2626, 40.6694, 0.0 ], [ -111.2625, 40.6702, 0.0 ], [ -111.2679, 40.6704, 0.0 ], [ -111.2675, 40.671, 0.0 ], [ -111.2668, 40.6719, 0.0 ], [ -111.2664, 40.6724, 0.0 ], [ -111.2656, 40.6733, 0.0 ], [ -111.2654, 40.6735, 0.0 ], [ -111.2654, 40.6736, 0.0 ], [ -111.2652, 40.6736, 0.0 ], [ -111.2649, 40.6738, 0.0 ], [ -111.2644, 40.674, 0.0 ], [ -111.2644, 40.6741, 0.0 ], [ -111.2643, 40.6742, 0.0 ], [ -111.2642, 40.6743, 0.0 ], [ -111.2641, 40.6743, 0.0 ], [ -111.264, 40.6743, 0.0 ], [ -111.2639, 40.6743, 0.0 ], [ -111.2639, 40.6742, 0.0 ], [ -111.264, 40.674, 0.0 ], [ -111.2641, 40.6739, 0.0 ], [ -111.264, 40.6738, 0.0 ], [ -111.2639, 40.6735, 0.0 ], [ -111.2639, 40.6734, 0.0 ], [ -111.264, 40.6733, 0.0 ], [ -111.2641, 40.6731, 0.0 ], [ -111.2641, 40.6729, 0.0 ], [ -111.2642, 40.6727, 0.0 ], [ -111.2642, 40.6723, 0.0 ], [ -111.2641, 40.6722, 0.0 ], [ -111.2641, 40.6721, 0.0 ], [ -111.264, 40.6719, 0.0 ], [ -111.2637, 40.6717, 0.0 ], [ -111.2635, 40.6715, 0.0 ], [ -111.2632, 40.6713, 0.0 ], [ -111.2629, 40.671, 0.0 ], [ -111.2626, 40.6708, 0.0 ], [ -111.2625, 40.6706, 0.0 ], [ -111.2624, 40.6703, 0.0 ], [ -111.2622, 40.6701, 0.0 ], [ -111.262, 40.67, 0.0 ], [ -111.2619, 40.67, 0.0 ], [ -111.2618, 40.6701, 0.0 ], [ -111.2613, 40.6717, 0.0 ], [ -111.2612, 40.672, 0.0 ], [ -111.261, 40.6724, 0.0 ], [ -111.2608, 40.6726, 0.0 ], [ -111.2606, 40.6728, 0.0 ], [ -111.2603, 40.673, 0.0 ], [ -111.26, 40.6731, 0.0 ], [ -111.2598, 40.6731, 0.0 ], [ -111.2597, 40.6731, 0.0 ], [ -111.2595, 40.6732, 0.0 ], [ -111.2591, 40.6732, 0.0 ], [ -111.2589, 40.6732, 0.0 ], [ -111.2588, 40.6733, 0.0 ], [ -111.2587, 40.6733, 0.0 ], [ -111.2583, 40.6735, 0.0 ], [ -111.2581, 40.6736, 0.0 ], [ -111.2579, 40.6737, 0.0 ], [ -111.2571, 40.674, 0.0 ], [ -111.2563, 40.6743, 0.0 ], [ -111.2561, 40.6743, 0.0 ], [ -111.2559, 40.6744, 0.0 ], [ -111.2558, 40.6745, 0.0 ], [ -111.2555, 40.6746, 0.0 ], [ -111.2551, 40.6746, 0.0 ], [ -111.2549, 40.6747, 0.0 ], [ -111.2548, 40.6748, 0.0 ], [ -111.2546, 40.675, 0.0 ], [ -111.2543, 40.6754, 0.0 ], [ -111.2542, 40.6755, 0.0 ], [ -111.254, 40.6755, 0.0 ], [ -111.2537, 40.6754, 0.0 ], [ -111.2536, 40.6753, 0.0 ], [ -111.2534, 40.6749, 0.0 ], [ -111.2534, 40.6748, 0.0 ], [ -111.2534, 40.6747, 0.0 ], [ -111.2536, 40.6746, 0.0 ], [ -111.2537, 40.6746, 0.0 ], [ -111.2538, 40.6744, 0.0 ], [ -111.2538, 40.6743, 0.0 ], [ -111.2537, 40.6742, 0.0 ], [ -111.2536, 40.674, 0.0 ], [ -111.2536, 40.6737, 0.0 ], [ -111.2534, 40.6735, 0.0 ], [ -111.2535, 40.6733, 0.0 ], [ -111.2535, 40.6732, 0.0 ], [ -111.2539, 40.6726, 0.0 ], [ -111.254, 40.6724, 0.0 ], [ -111.254, 40.6723, 0.0 ], [ -111.2539, 40.6718, 0.0 ], [ -111.2539, 40.671, 0.0 ], [ -111.2539, 40.6709, 0.0 ], [ -111.2537, 40.6714, 0.0 ], [ -111.2533, 40.672, 0.0 ], [ -111.2531, 40.6722, 0.0 ], [ -111.253, 40.6723, 0.0 ], [ -111.2527, 40.6723, 0.0 ], [ -111.2526, 40.6723, 0.0 ], [ -111.2525, 40.6722, 0.0 ], [ -111.252, 40.6717, 0.0 ], [ -111.2517, 40.672, 0.0 ], [ -111.2516, 40.6721, 0.0 ], [ -111.2514, 40.6724, 0.0 ], [ -111.2511, 40.6728, 0.0 ], [ -111.2509, 40.6728, 0.0 ], [ -111.2508, 40.6728, 0.0 ], [ -111.2507, 40.6728, 0.0 ], [ -111.2506, 40.6728, 0.0 ], [ -111.2505, 40.6727, 0.0 ], [ -111.2504, 40.6727, 0.0 ], [ -111.2502, 40.6726, 0.0 ], [ -111.25, 40.6726, 0.0 ], [ -111.2496, 40.6726, 0.0 ], [ -111.2495, 40.6726, 0.0 ], [ -111.2495, 40.6727, 0.0 ], [ -111.2495, 40.6728, 0.0 ], [ -111.2496, 40.6729, 0.0 ], [ -111.2497, 40.6731, 0.0 ], [ -111.2498, 40.6733, 0.0 ], [ -111.2499, 40.6735, 0.0 ], [ -111.2501, 40.6738, 0.0 ], [ -111.2502, 40.674, 0.0 ], [ -111.2504, 40.6741, 0.0 ], [ -111.2504, 40.6742, 0.0 ], [ -111.2505, 40.6744, 0.0 ], [ -111.2506, 40.6746, 0.0 ], [ -111.2506, 40.6748, 0.0 ], [ -111.2506, 40.6749, 0.0 ], [ -111.2506, 40.675, 0.0 ], [ -111.2505, 40.6752, 0.0 ], [ -111.2503, 40.6754, 0.0 ], [ -111.2502, 40.6756, 0.0 ], [ -111.2501, 40.6758, 0.0 ], [ -111.2501, 40.6759, 0.0 ], [ -111.2501, 40.6761, 0.0 ], [ -111.2501, 40.6762, 0.0 ], [ -111.2501, 40.6763, 0.0 ], [ -111.2501, 40.6765, 0.0 ], [ -111.25, 40.6765, 0.0 ], [ -111.25, 40.6766, 0.0 ], [ -111.2499, 40.6766, 0.0 ], [ -111.2497, 40.6766, 0.0 ], [ -111.2496, 40.6767, 0.0 ], [ -111.2493, 40.6767, 0.0 ], [ -111.249, 40.6769, 0.0 ], [ -111.2489, 40.677, 0.0 ], [ -111.2486, 40.6771, 0.0 ], [ -111.2483, 40.6774, 0.0 ], [ -111.2482, 40.6775, 0.0 ], [ -111.2481, 40.6776, 0.0 ], [ -111.2481, 40.6777, 0.0 ], [ -111.2482, 40.6778, 0.0 ], [ -111.2484, 40.6778, 0.0 ], [ -111.2485, 40.6778, 0.0 ], [ -111.2487, 40.6777, 0.0 ], [ -111.2489, 40.6777, 0.0 ], [ -111.249, 40.6777, 0.0 ], [ -111.2491, 40.6778, 0.0 ], [ -111.2491, 40.6779, 0.0 ], [ -111.2492, 40.6781, 0.0 ], [ -111.2492, 40.6783, 0.0 ], [ -111.2492, 40.6785, 0.0 ], [ -111.2492, 40.6787, 0.0 ], [ -111.2491, 40.6788, 0.0 ], [ -111.249, 40.6789, 0.0 ], [ -111.2489, 40.679, 0.0 ], [ -111.2488, 40.6792, 0.0 ], [ -111.2487, 40.6792, 0.0 ], [ -111.2487, 40.6793, 0.0 ], [ -111.2486, 40.6793, 0.0 ], [ -111.2484, 40.6794, 0.0 ], [ -111.2483, 40.6794, 0.0 ], [ -111.2479, 40.6793, 0.0 ], [ -111.2474, 40.6793, 0.0 ], [ -111.2473, 40.6792, 0.0 ], [ -111.247, 40.6791, 0.0 ], [ -111.2468, 40.679, 0.0 ], [ -111.2466, 40.679, 0.0 ], [ -111.246, 40.6788, 0.0 ], [ -111.2458, 40.6786, 0.0 ], [ -111.2456, 40.6786, 0.0 ], [ -111.2455, 40.6787, 0.0 ], [ -111.2454, 40.6788, 0.0 ], [ -111.2453, 40.6788, 0.0 ], [ -111.2451, 40.6788, 0.0 ], [ -111.245, 40.6788, 0.0 ], [ -111.2449, 40.6788, 0.0 ], [ -111.2448, 40.6788, 0.0 ], [ -111.2447, 40.6789, 0.0 ], [ -111.2446, 40.679, 0.0 ], [ -111.2444, 40.6791, 0.0 ], [ -111.2441, 40.6793, 0.0 ], [ -111.2439, 40.6793, 0.0 ], [ -111.2438, 40.6793, 0.0 ], [ -111.2436, 40.6793, 0.0 ], [ -111.2433, 40.6793, 0.0 ], [ -111.243, 40.6793, 0.0 ], [ -111.2429, 40.6793, 0.0 ], [ -111.2428, 40.6793, 0.0 ], [ -111.2427, 40.6793, 0.0 ], [ -111.2426, 40.6793, 0.0 ], [ -111.2426, 40.6792, 0.0 ], [ -111.2426, 40.6791, 0.0 ], [ -111.2425, 40.6791, 0.0 ], [ -111.2423, 40.6791, 0.0 ], [ -111.2421, 40.6791, 0.0 ], [ -111.242, 40.6792, 0.0 ], [ -111.2418, 40.6792, 0.0 ], [ -111.2416, 40.6791, 0.0 ], [ -111.2414, 40.6791, 0.0 ], [ -111.2413, 40.6792, 0.0 ], [ -111.2411, 40.6792, 0.0 ], [ -111.2409, 40.6792, 0.0 ], [ -111.2406, 40.6791, 0.0 ], [ -111.2405, 40.6791, 0.0 ], [ -111.2403, 40.6791, 0.0 ], [ -111.2402, 40.6791, 0.0 ], [ -111.24, 40.6792, 0.0 ], [ -111.2398, 40.6792, 0.0 ], [ -111.2397, 40.6793, 0.0 ], [ -111.2396, 40.6793, 0.0 ], [ -111.2394, 40.6793, 0.0 ], [ -111.239, 40.6792, 0.0 ], [ -111.2388, 40.6792, 0.0 ], [ -111.2387, 40.6792, 0.0 ], [ -111.2386, 40.6793, 0.0 ], [ -111.2385, 40.6793, 0.0 ], [ -111.2384, 40.6793, 0.0 ], [ -111.2383, 40.6793, 0.0 ], [ -111.2382, 40.6792, 0.0 ], [ -111.2382, 40.6791, 0.0 ], [ -111.2381, 40.6791, 0.0 ], [ -111.238, 40.6791, 0.0 ], [ -111.2379, 40.6791, 0.0 ], [ -111.2379, 40.6792, 0.0 ], [ -111.2379, 40.6793, 0.0 ], [ -111.2379, 40.6794, 0.0 ], [ -111.238, 40.6795, 0.0 ], [ -111.238, 40.6796, 0.0 ], [ -111.2381, 40.6797, 0.0 ], [ -111.2382, 40.6798, 0.0 ], [ -111.2383, 40.6799, 0.0 ], [ -111.2384, 40.6799, 0.0 ], [ -111.2385, 40.68, 0.0 ], [ -111.2386, 40.68, 0.0 ], [ -111.2387, 40.6801, 0.0 ], [ -111.2389, 40.6802, 0.0 ], [ -111.239, 40.6803, 0.0 ], [ -111.2391, 40.6803, 0.0 ], [ -111.2392, 40.6804, 0.0 ], [ -111.2393, 40.6805, 0.0 ], [ -111.2396, 40.6808, 0.0 ], [ -111.2397, 40.6809, 0.0 ], [ -111.2398, 40.681, 0.0 ], [ -111.2399, 40.6811, 0.0 ], [ -111.24, 40.6811, 0.0 ], [ -111.24, 40.6812, 0.0 ], [ -111.2401, 40.6812, 0.0 ], [ -111.2402, 40.6813, 0.0 ], [ -111.2403, 40.6813, 0.0 ], [ -111.2406, 40.6813, 0.0 ], [ -111.2408, 40.6814, 0.0 ], [ -111.2408, 40.6815, 0.0 ], [ -111.2409, 40.6815, 0.0 ], [ -111.241, 40.6815, 0.0 ], [ -111.2411, 40.6816, 0.0 ], [ -111.2413, 40.6818, 0.0 ], [ -111.2414, 40.6819, 0.0 ], [ -111.2415, 40.6819, 0.0 ], [ -111.2416, 40.682, 0.0 ], [ -111.2417, 40.682, 0.0 ], [ -111.2418, 40.6821, 0.0 ], [ -111.2419, 40.6822, 0.0 ], [ -111.242, 40.6822, 0.0 ], [ -111.2421, 40.6823, 0.0 ], [ -111.2423, 40.6824, 0.0 ], [ -111.2424, 40.6824, 0.0 ], [ -111.2425, 40.6824, 0.0 ], [ -111.2426, 40.6824, 0.0 ], [ -111.2428, 40.6825, 0.0 ], [ -111.243, 40.6826, 0.0 ], [ -111.2431, 40.6826, 0.0 ], [ -111.2433, 40.6826, 0.0 ], [ -111.2434, 40.6826, 0.0 ], [ -111.2435, 40.6827, 0.0 ], [ -111.2436, 40.6827, 0.0 ], [ -111.2437, 40.6828, 0.0 ], [ -111.2438, 40.6829, 0.0 ], [ -111.2439, 40.6829, 0.0 ], [ -111.244, 40.6829, 0.0 ], [ -111.2441, 40.683, 0.0 ], [ -111.2442, 40.683, 0.0 ], [ -111.2443, 40.683, 0.0 ], [ -111.2445, 40.6829, 0.0 ], [ -111.2446, 40.6829, 0.0 ], [ -111.2447, 40.6829, 0.0 ], [ -111.2448, 40.6829, 0.0 ], [ -111.2449, 40.6828, 0.0 ], [ -111.245, 40.6828, 0.0 ], [ -111.2452, 40.6828, 0.0 ], [ -111.2453, 40.6828, 0.0 ], [ -111.2454, 40.6829, 0.0 ], [ -111.2456, 40.6829, 0.0 ], [ -111.2456, 40.683, 0.0 ], [ -111.2457, 40.683, 0.0 ], [ -111.2458, 40.6831, 0.0 ], [ -111.2459, 40.6832, 0.0 ], [ -111.2461, 40.6833, 0.0 ], [ -111.2462, 40.6834, 0.0 ], [ -111.2464, 40.6834, 0.0 ], [ -111.2464, 40.6835, 0.0 ], [ -111.2465, 40.6835, 0.0 ], [ -111.2467, 40.6835, 0.0 ], [ -111.2469, 40.6835, 0.0 ], [ -111.2471, 40.6836, 0.0 ], [ -111.2474, 40.6836, 0.0 ], [ -111.2475, 40.6837, 0.0 ], [ -111.2477, 40.6837, 0.0 ], [ -111.248, 40.6838, 0.0 ], [ -111.2484, 40.684, 0.0 ], [ -111.2488, 40.6842, 0.0 ], [ -111.249, 40.6843, 0.0 ], [ -111.2492, 40.6845, 0.0 ], [ -111.2494, 40.6846, 0.0 ], [ -111.2494, 40.6848, 0.0 ], [ -111.2494, 40.6849, 0.0 ], [ -111.2495, 40.685, 0.0 ], [ -111.2496, 40.6851, 0.0 ], [ -111.2497, 40.6851, 0.0 ], [ -111.2501, 40.6852, 0.0 ], [ -111.2502, 40.6852, 0.0 ], [ -111.2504, 40.6852, 0.0 ], [ -111.2506, 40.6852, 0.0 ], [ -111.2508, 40.6853, 0.0 ], [ -111.2512, 40.6854, 0.0 ], [ -111.2513, 40.6855, 0.0 ], [ -111.2515, 40.6855, 0.0 ], [ -111.2516, 40.6856, 0.0 ], [ -111.2517, 40.6856, 0.0 ], [ -111.2521, 40.6857, 0.0 ], [ -111.2523, 40.6858, 0.0 ], [ -111.2525, 40.6859, 0.0 ], [ -111.2529, 40.686, 0.0 ], [ -111.2531, 40.6861, 0.0 ], [ -111.2533, 40.6861, 0.0 ], [ -111.2534, 40.6861, 0.0 ], [ -111.2536, 40.6861, 0.0 ], [ -111.2538, 40.6862, 0.0 ], [ -111.2539, 40.6863, 0.0 ], [ -111.254, 40.6863, 0.0 ], [ -111.2541, 40.6864, 0.0 ], [ -111.2542, 40.6864, 0.0 ], [ -111.2543, 40.6865, 0.0 ], [ -111.2544, 40.6866, 0.0 ], [ -111.2545, 40.6867, 0.0 ], [ -111.2546, 40.6867, 0.0 ], [ -111.2547, 40.6868, 0.0 ], [ -111.2548, 40.6869, 0.0 ], [ -111.255, 40.687, 0.0 ], [ -111.2551, 40.687, 0.0 ], [ -111.2552, 40.687, 0.0 ], [ -111.2554, 40.687, 0.0 ], [ -111.2555, 40.687, 0.0 ], [ -111.2556, 40.687, 0.0 ], [ -111.2557, 40.687, 0.0 ], [ -111.2559, 40.687, 0.0 ], [ -111.256, 40.6871, 0.0 ], [ -111.2561, 40.6872, 0.0 ], [ -111.2562, 40.6873, 0.0 ], [ -111.2563, 40.6874, 0.0 ], [ -111.2564, 40.6874, 0.0 ], [ -111.2565, 40.6874, 0.0 ], [ -111.2566, 40.6874, 0.0 ], [ -111.2566, 40.6873, 0.0 ], [ -111.2567, 40.6873, 0.0 ], [ -111.2568, 40.6873, 0.0 ], [ -111.2568, 40.6874, 0.0 ], [ -111.2569, 40.6874, 0.0 ], [ -111.257, 40.6875, 0.0 ], [ -111.2571, 40.6876, 0.0 ], [ -111.2571, 40.6877, 0.0 ], [ -111.257, 40.6877, 0.0 ], [ -111.257, 40.6878, 0.0 ], [ -111.2569, 40.688, 0.0 ], [ -111.257, 40.688, 0.0 ], [ -111.257, 40.6881, 0.0 ], [ -111.257, 40.6882, 0.0 ], [ -111.257, 40.6884, 0.0 ], [ -111.257, 40.6886, 0.0 ], [ -111.257, 40.6889, 0.0 ], [ -111.257, 40.6892, 0.0 ], [ -111.2569, 40.6895, 0.0 ], [ -111.2567, 40.6895, 0.0 ], [ -111.2566, 40.6895, 0.0 ], [ -111.2564, 40.6894, 0.0 ], [ -111.2563, 40.6894, 0.0 ], [ -111.2562, 40.6894, 0.0 ], [ -111.2561, 40.6894, 0.0 ], [ -111.2559, 40.6894, 0.0 ], [ -111.2554, 40.6894, 0.0 ], [ -111.2549, 40.6894, 0.0 ], [ -111.2547, 40.6894, 0.0 ], [ -111.2546, 40.6894, 0.0 ], [ -111.2545, 40.6894, 0.0 ], [ -111.2544, 40.6895, 0.0 ], [ -111.2542, 40.6895, 0.0 ], [ -111.254, 40.6896, 0.0 ], [ -111.2539, 40.6897, 0.0 ], [ -111.2535, 40.6899, 0.0 ], [ -111.2535, 40.69, 0.0 ], [ -111.2534, 40.69, 0.0 ], [ -111.2534, 40.6901, 0.0 ], [ -111.2534, 40.6902, 0.0 ], [ -111.2534, 40.6903, 0.0 ], [ -111.2534, 40.6904, 0.0 ], [ -111.2534, 40.6905, 0.0 ], [ -111.2535, 40.6908, 0.0 ], [ -111.2535, 40.691, 0.0 ], [ -111.2535, 40.6911, 0.0 ], [ -111.2535, 40.6912, 0.0 ], [ -111.2535, 40.6913, 0.0 ], [ -111.2534, 40.6914, 0.0 ], [ -111.2533, 40.6915, 0.0 ], [ -111.2532, 40.6915, 0.0 ], [ -111.2531, 40.6916, 0.0 ], [ -111.2529, 40.6916, 0.0 ], [ -111.2528, 40.6916, 0.0 ], [ -111.2538, 40.6917, 0.0 ], [ -111.2543, 40.6917, 0.0 ], [ -111.2545, 40.6917, 0.0 ], [ -111.255, 40.6917, 0.0 ], [ -111.2552, 40.6917, 0.0 ], [ -111.2555, 40.6916, 0.0 ], [ -111.2558, 40.6915, 0.0 ], [ -111.2563, 40.6914, 0.0 ], [ -111.2567, 40.6913, 0.0 ], [ -111.2567, 40.6929, 0.0 ], [ -111.2567, 40.6942, 0.0 ], [ -111.2568, 40.6949, 0.0 ], [ -111.2567, 40.6955, 0.0 ], [ -111.2568, 40.6963, 0.0 ], [ -111.2567, 40.6963, 0.0 ], [ -111.2566, 40.6975, 0.0 ], [ -111.2567, 40.6977, 0.0 ], [ -111.2567, 40.6978, 0.0 ], [ -111.2567, 40.6987, 0.0 ], [ -111.2587, 40.6987, 0.0 ], [ -111.259, 40.6987, 0.0 ], [ -111.2599, 40.6987, 0.0 ], [ -111.2609, 40.6987, 0.0 ], [ -111.2617, 40.6988, 0.0 ], [ -111.262, 40.6988, 0.0 ], [ -111.2622, 40.6988, 0.0 ], [ -111.2631, 40.6988, 0.0 ], [ -111.2639, 40.6987, 0.0 ], [ -111.2642, 40.6987, 0.0 ], [ -111.2643, 40.6987, 0.0 ], [ -111.2639, 40.6992, 0.0 ], [ -111.2638, 40.6997, 0.0 ], [ -111.2637, 40.7, 0.0 ], [ -111.2633, 40.7005, 0.0 ], [ -111.2631, 40.7006, 0.0 ], [ -111.2629, 40.7009, 0.0 ], [ -111.2629, 40.7013, 0.0 ], [ -111.2619, 40.7031, 0.0 ], [ -111.2616, 40.7035, 0.0 ], [ -111.2608, 40.7037, 0.0 ], [ -111.2607, 40.7039, 0.0 ], [ -111.2606, 40.7041, 0.0 ], [ -111.2605, 40.7048, 0.0 ], [ -111.26, 40.7059, 0.0 ], [ -111.2598, 40.7061, 0.0 ], [ -111.2595, 40.7065, 0.0 ], [ -111.259, 40.7069, 0.0 ], [ -111.2591, 40.7073, 0.0 ], [ -111.2592, 40.7076, 0.0 ], [ -111.2591, 40.7078, 0.0 ], [ -111.2585, 40.7086, 0.0 ], [ -111.2578, 40.7103, 0.0 ], [ -111.2577, 40.7105, 0.0 ], [ -111.2576, 40.7108, 0.0 ], [ -111.2575, 40.711, 0.0 ], [ -111.2574, 40.7115, 0.0 ], [ -111.2572, 40.7119, 0.0 ], [ -111.2569, 40.7124, 0.0 ], [ -111.2568, 40.713, 0.0 ], [ -111.2568, 40.7134, 0.0 ], [ -111.2567, 40.7136, 0.0 ], [ -111.2567, 40.7138, 0.0 ], [ -111.2568, 40.714, 0.0 ], [ -111.2567, 40.7147, 0.0 ], [ -111.2569, 40.715, 0.0 ], [ -111.2577, 40.7157, 0.0 ], [ -111.2579, 40.7161, 0.0 ], [ -111.2589, 40.7169, 0.0 ], [ -111.2591, 40.7174, 0.0 ], [ -111.2591, 40.7182, 0.0 ], [ -111.2585, 40.7193, 0.0 ], [ -111.2587, 40.7195, 0.0 ], [ -111.259, 40.7196, 0.0 ], [ -111.2592, 40.7197, 0.0 ], [ -111.2592, 40.7201, 0.0 ], [ -111.2594, 40.7203, 0.0 ], [ -111.2594, 40.7204, 0.0 ], [ -111.2588, 40.7204, 0.0 ], [ -111.2571, 40.7204, 0.0 ], [ -111.2533, 40.7204, 0.0 ], [ -111.2524, 40.7204, 0.0 ], [ -111.2524, 40.7167, 0.0 ], [ -111.2497, 40.7167, 0.0 ], [ -111.2477, 40.7167, 0.0 ], [ -111.2477, 40.7192, 0.0 ], [ -111.2437, 40.7193, 0.0 ], [ -111.2436, 40.724, 0.0 ], [ -111.243, 40.724, 0.0 ], [ -111.243, 40.7251, 0.0 ], [ -111.243, 40.727, 0.0 ], [ -111.243, 40.7275, 0.0 ], [ -111.243, 40.7294, 0.0 ], [ -111.2429, 40.7324, 0.0 ], [ -111.2429, 40.7336, 0.0 ], [ -111.2429, 40.7349, 0.0 ], [ -111.2431, 40.7349, 0.0 ], [ -111.2438, 40.7349, 0.0 ], [ -111.2481, 40.7349, 0.0 ], [ -111.2481, 40.7348, 0.0 ], [ -111.2482, 40.7347, 0.0 ], [ -111.2482, 40.7344, 0.0 ], [ -111.2483, 40.7343, 0.0 ], [ -111.2483, 40.7342, 0.0 ], [ -111.2483, 40.7341, 0.0 ], [ -111.2484, 40.734, 0.0 ], [ -111.2484, 40.7339, 0.0 ], [ -111.2485, 40.7338, 0.0 ], [ -111.2486, 40.7337, 0.0 ], [ -111.2487, 40.7336, 0.0 ], [ -111.2488, 40.7333, 0.0 ], [ -111.2489, 40.7332, 0.0 ], [ -111.249, 40.7331, 0.0 ], [ -111.249, 40.7329, 0.0 ], [ -111.2492, 40.7326, 0.0 ], [ -111.2492, 40.7325, 0.0 ], [ -111.2494, 40.7323, 0.0 ], [ -111.2495, 40.7321, 0.0 ], [ -111.2497, 40.7318, 0.0 ], [ -111.2499, 40.7317, 0.0 ], [ -111.2501, 40.7314, 0.0 ], [ -111.2502, 40.7312, 0.0 ], [ -111.2503, 40.7311, 0.0 ], [ -111.2504, 40.731, 0.0 ], [ -111.2505, 40.731, 0.0 ], [ -111.2507, 40.7309, 0.0 ], [ -111.2508, 40.7309, 0.0 ], [ -111.2509, 40.7308, 0.0 ], [ -111.2512, 40.7306, 0.0 ], [ -111.2514, 40.7304, 0.0 ], [ -111.2518, 40.7302, 0.0 ], [ -111.2519, 40.7301, 0.0 ], [ -111.252, 40.73, 0.0 ], [ -111.2523, 40.7297, 0.0 ], [ -111.2524, 40.7294, 0.0 ], [ -111.2526, 40.7291, 0.0 ], [ -111.2529, 40.7288, 0.0 ], [ -111.253, 40.7288, 0.0 ], [ -111.253, 40.7287, 0.0 ], [ -111.2531, 40.7287, 0.0 ], [ -111.2532, 40.7287, 0.0 ], [ -111.2533, 40.7287, 0.0 ], [ -111.2533, 40.7288, 0.0 ], [ -111.2533, 40.7289, 0.0 ], [ -111.2534, 40.7289, 0.0 ], [ -111.2534, 40.729, 0.0 ], [ -111.2545, 40.7301, 0.0 ], [ -111.2548, 40.7304, 0.0 ], [ -111.255, 40.7307, 0.0 ], [ -111.2559, 40.7316, 0.0 ], [ -111.256, 40.7317, 0.0 ], [ -111.2562, 40.7319, 0.0 ], [ -111.2571, 40.7315, 0.0 ], [ -111.2577, 40.7313, 0.0 ], [ -111.2582, 40.7312, 0.0 ], [ -111.2588, 40.7311, 0.0 ], [ -111.2592, 40.7311, 0.0 ], [ -111.2595, 40.7311, 0.0 ], [ -111.2598, 40.7311, 0.0 ], [ -111.2601, 40.7312, 0.0 ], [ -111.2605, 40.7313, 0.0 ], [ -111.2611, 40.7316, 0.0 ], [ -111.2614, 40.7317, 0.0 ], [ -111.2616, 40.7318, 0.0 ], [ -111.2618, 40.7318, 0.0 ], [ -111.2621, 40.7319, 0.0 ], [ -111.2634, 40.7321, 0.0 ], [ -111.2643, 40.7322, 0.0 ], [ -111.2647, 40.7323, 0.0 ], [ -111.265, 40.7323, 0.0 ], [ -111.2653, 40.7323, 0.0 ], [ -111.2658, 40.7322, 0.0 ], [ -111.2663, 40.7322, 0.0 ], [ -111.2665, 40.7321, 0.0 ], [ -111.2667, 40.7321, 0.0 ], [ -111.267, 40.7319, 0.0 ], [ -111.2673, 40.7318, 0.0 ], [ -111.2689, 40.731, 0.0 ], [ -111.2707, 40.73, 0.0 ], [ -111.2711, 40.7298, 0.0 ], [ -111.2714, 40.7297, 0.0 ], [ -111.2731, 40.7287, 0.0 ], [ -111.2732, 40.7285, 0.0 ], [ -111.2733, 40.7284, 0.0 ], [ -111.2735, 40.7283, 0.0 ], [ -111.2736, 40.7282, 0.0 ], [ -111.2737, 40.7281, 0.0 ], [ -111.2739, 40.728, 0.0 ], [ -111.2742, 40.7278, 0.0 ], [ -111.2746, 40.7275, 0.0 ], [ -111.2752, 40.7272, 0.0 ], [ -111.2758, 40.727, 0.0 ], [ -111.2766, 40.7266, 0.0 ], [ -111.2774, 40.7262, 0.0 ], [ -111.2776, 40.7261, 0.0 ], [ -111.2778, 40.726, 0.0 ], [ -111.2781, 40.7258, 0.0 ], [ -111.2784, 40.7256, 0.0 ], [ -111.2786, 40.7255, 0.0 ], [ -111.2789, 40.7253, 0.0 ], [ -111.2793, 40.7251, 0.0 ], [ -111.2801, 40.7248, 0.0 ], [ -111.2803, 40.7247, 0.0 ], [ -111.281, 40.7243, 0.0 ], [ -111.2813, 40.7242, 0.0 ], [ -111.2816, 40.724, 0.0 ], [ -111.2821, 40.7236, 0.0 ], [ -111.2825, 40.7234, 0.0 ], [ -111.2829, 40.7232, 0.0 ], [ -111.2833, 40.7231, 0.0 ], [ -111.2838, 40.7229, 0.0 ], [ -111.2841, 40.7228, 0.0 ], [ -111.2844, 40.7227, 0.0 ], [ -111.2846, 40.7226, 0.0 ], [ -111.2851, 40.7225, 0.0 ], [ -111.2855, 40.7224, 0.0 ], [ -111.2857, 40.7224, 0.0 ], [ -111.2858, 40.7223, 0.0 ], [ -111.2864, 40.7221, 0.0 ], [ -111.2868, 40.722, 0.0 ], [ -111.2872, 40.7218, 0.0 ], [ -111.2875, 40.7217, 0.0 ], [ -111.2876, 40.7217, 0.0 ], [ -111.2884, 40.7213, 0.0 ], [ -111.2896, 40.7208, 0.0 ], [ -111.2903, 40.7205, 0.0 ], [ -111.2908, 40.7202, 0.0 ], [ -111.2911, 40.7201, 0.0 ], [ -111.2917, 40.7198, 0.0 ], [ -111.2929, 40.7193, 0.0 ], [ -111.2943, 40.7186, 0.0 ], [ -111.2956, 40.718, 0.0 ], [ -111.2963, 40.7176, 0.0 ], [ -111.2965, 40.7175, 0.0 ], [ -111.2968, 40.7173, 0.0 ], [ -111.2972, 40.717, 0.0 ], [ -111.2975, 40.7169, 0.0 ], [ -111.2977, 40.7168, 0.0 ], [ -111.2988, 40.7166, 0.0 ], [ -111.2994, 40.7164, 0.0 ], [ -111.2996, 40.7164, 0.0 ], [ -111.2998, 40.7164, 0.0 ], [ -111.3, 40.7164, 0.0 ], [ -111.3003, 40.7164, 0.0 ], [ -111.3003, 40.715, 0.0 ], [ -111.3003, 40.7148, 0.0 ], [ -111.3003, 40.7142, 0.0 ], [ -111.3003, 40.7138, 0.0 ], [ -111.3003, 40.7133, 0.0 ], [ -111.3003, 40.7131, 0.0 ], [ -111.3002, 40.713, 0.0 ], [ -111.3001, 40.7128, 0.0 ], [ -111.3002, 40.7128, 0.0 ], [ -111.3003, 40.7127, 0.0 ], [ -111.3003, 40.7126, 0.0 ], [ -111.3003, 40.7115, 0.0 ], [ -111.3003, 40.7113, 0.0 ], [ -111.3003, 40.7092, 0.0 ], [ -111.3003, 40.7089, 0.0 ], [ -111.3003, 40.7077, 0.0 ], [ -111.3003, 40.7072, 0.0 ], [ -111.3002, 40.706, 0.0 ], [ -111.3002, 40.7057, 0.0 ], [ -111.3004, 40.7057, 0.0 ], [ -111.3011, 40.7057, 0.0 ], [ -111.3025, 40.7057, 0.0 ], [ -111.304, 40.7057, 0.0 ], [ -111.305, 40.7057, 0.0 ], [ -111.3066, 40.7057, 0.0 ], [ -111.3066, 40.7061, 0.0 ], [ -111.3068, 40.7061, 0.0 ], [ -111.3081, 40.7061, 0.0 ], [ -111.3083, 40.7057, 0.0 ], [ -111.3085, 40.7057, 0.0 ], [ -111.3092, 40.7053, 0.0 ], [ -111.31, 40.7052, 0.0 ], [ -111.3106, 40.7053, 0.0 ], [ -111.3111, 40.7053, 0.0 ], [ -111.3118, 40.7051, 0.0 ], [ -111.3127, 40.705, 0.0 ], [ -111.313, 40.7048, 0.0 ], [ -111.3135, 40.7045, 0.0 ], [ -111.3147, 40.7042, 0.0 ], [ -111.3151, 40.704, 0.0 ], [ -111.3153, 40.7037, 0.0 ], [ -111.3155, 40.7036, 0.0 ], [ -111.3155, 40.7033, 0.0 ], [ -111.3157, 40.7031, 0.0 ], [ -111.3161, 40.703, 0.0 ], [ -111.3167, 40.703, 0.0 ], [ -111.3171, 40.7028, 0.0 ], [ -111.318, 40.7027, 0.0 ], [ -111.3183, 40.7026, 0.0 ], [ -111.3194, 40.7023, 0.0 ], [ -111.32, 40.7023, 0.0 ] ] ] } }
,
{ "type": "Feature", "properties": { "Name": "84036R001", "Description": "" }, "geometry": { "type": "Polygon", "coordinates": [ [ [ -111.0288, 40.5417, 0.0 ], [ -111.029, 40.5418, 0.0 ], [ -111.0291, 40.5419, 0.0 ], [ -111.0293, 40.5419, 0.0 ], [ -111.0294, 40.542, 0.0 ], [ -111.0297, 40.542, 0.0 ], [ -111.03, 40.5421, 0.0 ], [ -111.0302, 40.5422, 0.0 ], [ -111.0303, 40.5422, 0.0 ], [ -111.0305, 40.5422, 0.0 ], [ -111.0306, 40.5423, 0.0 ], [ -111.0308, 40.5423, 0.0 ], [ -111.0309, 40.5423, 0.0 ], [ -111.0311, 40.5424, 0.0 ], [ -111.0312, 40.5424, 0.0 ], [ -111.0313, 40.5425, 0.0 ], [ -111.0314, 40.5425, 0.0 ], [ -111.0315, 40.5426, 0.0 ], [ -111.0315, 40.5427, 0.0 ], [ -111.0316, 40.5428, 0.0 ], [ -111.0316, 40.5429, 0.0 ], [ -111.0316, 40.543, 0.0 ], [ -111.0316, 40.5431, 0.0 ], [ -111.0323, 40.5435, 0.0 ], [ -111.0328, 40.5442, 0.0 ], [ -111.0335, 40.545, 0.0 ], [ -111.0336, 40.5453, 0.0 ], [ -111.0336, 40.5464, 0.0 ], [ -111.034, 40.5468, 0.0 ], [ -111.0357, 40.5477, 0.0 ], [ -111.0361, 40.548, 0.0 ], [ -111.0361, 40.5483, 0.0 ], [ -111.0365, 40.5489, 0.0 ], [ -111.0375, 40.5498, 0.0 ], [ -111.0376, 40.5501, 0.0 ], [ -111.0377, 40.5506, 0.0 ], [ -111.0373, 40.5523, 0.0 ], [ -111.0371, 40.5532, 0.0 ], [ -111.0371, 40.5535, 0.0 ], [ -111.0369, 40.5551, 0.0 ], [ -111.0367, 40.5555, 0.0 ], [ -111.0363, 40.5558, 0.0 ], [ -111.0347, 40.5562, 0.0 ], [ -111.0348, 40.5567, 0.0 ], [ -111.0348, 40.5569, 0.0 ], [ -111.035, 40.5573, 0.0 ], [ -111.0365, 40.5582, 0.0 ], [ -111.0378, 40.5591, 0.0 ], [ -111.0391, 40.5608, 0.0 ], [ -111.0392, 40.561, 0.0 ], [ -111.0393, 40.5611, 0.0 ], [ -111.0393, 40.5612, 0.0 ], [ -111.0401, 40.5621, 0.0 ], [ -111.0407, 40.5624, 0.0 ], [ -111.0422, 40.5627, 0.0 ], [ -111.043, 40.563, 0.0 ], [ -111.0433, 40.5633, 0.0 ], [ -111.0436, 40.5642, 0.0 ], [ -111.0439, 40.5674, 0.0 ], [ -111.044, 40.5677, 0.0 ], [ -111.0441, 40.568, 0.0 ], [ -111.0442, 40.5683, 0.0 ], [ -111.0448, 40.569, 0.0 ], [ -111.0449, 40.5692, 0.0 ], [ -111.0455, 40.57, 0.0 ], [ -111.0456, 40.5702, 0.0 ], [ -111.0459, 40.5706, 0.0 ], [ -111.0463, 40.5713, 0.0 ], [ -111.0464, 40.5716, 0.0 ], [ -111.0465, 40.5718, 0.0 ], [ -111.0467, 40.5722, 0.0 ], [ -111.0468, 40.5727, 0.0 ], [ -111.0467, 40.5733, 0.0 ], [ -111.0465, 40.5739, 0.0 ], [ -111.0463, 40.5743, 0.0 ], [ -111.0461, 40.5744, 0.0 ], [ -111.0463, 40.5746, 0.0 ], [ -111.0464, 40.5747, 0.0 ], [ -111.0466, 40.5753, 0.0 ], [ -111.0469, 40.5761, 0.0 ], [ -111.047, 40.5764, 0.0 ], [ -111.0472, 40.5768, 0.0 ], [ -111.0473, 40.577, 0.0 ], [ -111.0477, 40.5777, 0.0 ], [ -111.0479, 40.5781, 0.0 ], [ -111.048, 40.5783, 0.0 ], [ -111.048, 40.5785, 0.0 ], [ -111.048, 40.5788, 0.0 ], [ -111.0479, 40.579, 0.0 ], [ -111.0478, 40.5792, 0.0 ], [ -111.0475, 40.5796, 0.0 ], [ -111.0474, 40.5798, 0.0 ], [ -111.0474, 40.5801, 0.0 ], [ -111.0474, 40.5802, 0.0 ], [ -111.0475, 40.5804, 0.0 ], [ -111.0477, 40.5805, 0.0 ], [ -111.0483, 40.5809, 0.0 ], [ -111.0484, 40.581, 0.0 ], [ -111.0485, 40.5812, 0.0 ], [ -111.0485, 40.5814, 0.0 ], [ -111.0486, 40.5816, 0.0 ], [ -111.0497, 40.5822, 0.0 ], [ -111.0505, 40.5826, 0.0 ], [ -111.0523, 40.5837, 0.0 ], [ -111.0529, 40.5841, 0.0 ], [ -111.054, 40.5849, 0.0 ], [ -111.0555, 40.5856, 0.0 ], [ -111.0568, 40.5861, 0.0 ], [ -111.0581, 40.5865, 0.0 ], [ -111.0624, 40.5873, 0.0 ], [ -111.0629, 40.5875, 0.0 ], [ -111.0634, 40.5877, 0.0 ], [ -111.0644, 40.5883, 0.0 ], [ -111.0665, 40.5895, 0.0 ], [ -111.0676, 40.5903, 0.0 ], [ -111.0699, 40.5918, 0.0 ], [ -111.0721, 40.5934, 0.0 ], [ -111.0732, 40.594, 0.0 ], [ -111.0745, 40.5946, 0.0 ], [ -111.0774, 40.5955, 0.0 ], [ -111.0782, 40.5956, 0.0 ], [ -111.0797, 40.5956, 0.0 ], [ -111.0806, 40.5954, 0.0 ], [ -111.0848, 40.5947, 0.0 ], [ -111.0851, 40.5946, 0.0 ], [ -111.0868, 40.5943, 0.0 ], [ -111.0879, 40.5943, 0.0 ], [ -111.0884, 40.5943, 0.0 ], [ -111.0893, 40.5945, 0.0 ], [ -111.0898, 40.5946, 0.0 ], [ -111.0908, 40.5949, 0.0 ], [ -111.0975, 40.5974, 0.0 ], [ -111.0991, 40.5981, 0.0 ], [ -111.1, 40.5984, 0.0 ], [ -111.1008, 40.5987, 0.0 ], [ -111.1017, 40.5991, 0.0 ], [ -111.1019, 40.5991, 0.0 ], [ -111.1028, 40.5995, 0.0 ], [ -111.1033, 40.5996, 0.0 ], [ -111.1037, 40.5997, 0.0 ], [ -111.1041, 40.5999, 0.0 ], [ -111.1046, 40.6, 0.0 ], [ -111.105, 40.6001, 0.0 ], [ -111.1055, 40.6002, 0.0 ], [ -111.1061, 40.6003, 0.0 ], [ -111.1065, 40.6003, 0.0 ], [ -111.1076, 40.6005, 0.0 ], [ -111.109, 40.6007, 0.0 ], [ -111.1103, 40.6009, 0.0 ], [ -111.1112, 40.6011, 0.0 ], [ -111.1131, 40.6014, 0.0 ], [ -111.1136, 40.6015, 0.0 ], [ -111.114, 40.6016, 0.0 ], [ -111.1144, 40.6017, 0.0 ], [ -111.1149, 40.6018, 0.0 ], [ -111.115, 40.6019, 0.0 ], [ -111.1153, 40.6019, 0.0 ], [ -111.1157, 40.6021, 0.0 ], [ -111.1163, 40.6024, 0.0 ], [ -111.117, 40.6028, 0.0 ], [ -111.1174, 40.603, 0.0 ], [ -111.1177, 40.6032, 0.0 ], [ -111.1178, 40.6033, 0.0 ], [ -111.1185, 40.6029, 0.0 ], [ -111.1187, 40.6028, 0.0 ], [ -111.1189, 40.6028, 0.0 ], [ -111.1191, 40.6027, 0.0 ], [ -111.1196, 40.603, 0.0 ], [ -111.1202, 40.6036, 0.0 ], [ -111.1207, 40.6042, 0.0 ], [ -111.1219, 40.6053, 0.0 ], [ -111.1228, 40.6061, 0.0 ], [ -111.1239, 40.6074, 0.0 ], [ -111.1248, 40.6084, 0.0 ], [ -111.125, 40.6087, 0.0 ], [ -111.1258, 40.6096, 0.0 ], [ -111.1263, 40.6105, 0.0 ], [ -111.1265, 40.6107, 0.0 ], [ -111.1269, 40.6113, 0.0 ], [ -111.127, 40.6113, 0.0 ], [ -111.1289, 40.6127, 0.0 ], [ -111.1298, 40.614, 0.0 ], [ -111.1304, 40.6144, 0.0 ], [ -111.1303, 40.6144, 0.0 ], [ -111.1296, 40.615, 0.0 ], [ -111.1302, 40.6154, 0.0 ], [ -111.1319, 40.6168, 0.0 ], [ -111.1322, 40.6171, 0.0 ], [ -111.1325, 40.6173, 0.0 ], [ -111.1328, 40.6176, 0.0 ], [ -111.1339, 40.6189, 0.0 ], [ -111.1348, 40.6198, 0.0 ], [ -111.1348, 40.6199, 0.0 ], [ -111.1351, 40.6202, 0.0 ], [ -111.1355, 40.6206, 0.0 ], [ -111.1358, 40.6209, 0.0 ], [ -111.1361, 40.6211, 0.0 ], [ -111.1364, 40.6214, 0.0 ], [ -111.1368, 40.6216, 0.0 ], [ -111.1374, 40.6219, 0.0 ], [ -111.138, 40.6222, 0.0 ], [ -111.1382, 40.6223, 0.0 ], [ -111.1384, 40.6224, 0.0 ], [ -111.1386, 40.6223, 0.0 ], [ -111.1392, 40.622, 0.0 ], [ -111.1399, 40.6215, 0.0 ], [ -111.1406, 40.6213, 0.0 ], [ -111.1419, 40.6208, 0.0 ], [ -111.142, 40.6207, 0.0 ], [ -111.1432, 40.6208, 0.0 ], [ -111.1434, 40.6209, 0.0 ], [ -111.1438, 40.621, 0.0 ], [ -111.144, 40.6212, 0.0 ], [ -111.1442, 40.6214, 0.0 ], [ -111.1446, 40.6214, 0.0 ], [ -111.1454, 40.6213, 0.0 ], [ -111.1461, 40.6215, 0.0 ], [ -111.1472, 40.6215, 0.0 ], [ -111.1478, 40.6217, 0.0 ], [ -111.1484, 40.6221, 0.0 ], [ -111.149, 40.6221, 0.0 ], [ -111.1499, 40.6218, 0.0 ], [ -111.1503, 40.6218, 0.0 ], [ -111.1511, 40.6214, 0.0 ], [ -111.1518, 40.6214, 0.0 ], [ -111.152, 40.6214, 0.0 ], [ -111.1524, 40.6213, 0.0 ], [ -111.1525, 40.6213, 0.0 ], [ -111.1527, 40.6213, 0.0 ], [ -111.1529, 40.6215, 0.0 ], [ -111.1529, 40.6216, 0.0 ], [ -111.1533, 40.6218, 0.0 ], [ -111.1537, 40.6218, 0.0 ], [ -111.1542, 40.6217, 0.0 ], [ -111.155, 40.6219, 0.0 ], [ -111.1562, 40.6221, 0.0 ], [ -111.1569, 40.6222, 0.0 ], [ -111.1573, 40.6225, 0.0 ], [ -111.1587, 40.6231, 0.0 ], [ -111.1593, 40.6232, 0.0 ], [ -111.1594, 40.6235, 0.0 ], [ -111.1596, 40.6237, 0.0 ], [ -111.16, 40.6225, 0.0 ], [ -111.16, 40.6223, 0.0 ], [ -111.1601, 40.622, 0.0 ], [ -111.1602, 40.6218, 0.0 ], [ -111.1604, 40.6214, 0.0 ], [ -111.1607, 40.6209, 0.0 ], [ -111.1609, 40.6205, 0.0 ], [ -111.161, 40.6203, 0.0 ], [ -111.1611, 40.6197, 0.0 ], [ -111.1672, 40.6214, 0.0 ], [ -111.1709, 40.6225, 0.0 ], [ -111.18, 40.6236, 0.0 ], [ -111.1863, 40.6232, 0.0 ], [ -111.1957, 40.6197, 0.0 ], [ -111.2017, 40.6148, 0.0 ], [ -111.2025, 40.6144, 0.0 ], [ -111.2036, 40.6143, 0.0 ], [ -111.2064, 40.6139, 0.0 ], [ -111.2111, 40.6137, 0.0 ], [ -111.2113, 40.6137, 0.0 ], [ -111.2117, 40.6138, 0.0 ], [ -111.2145, 40.614, 0.0 ], [ -111.2185, 40.6146, 0.0 ], [ -111.2216, 40.6155, 0.0 ], [ -111.2254, 40.6169, 0.0 ], [ -111.2296, 40.6187, 0.0 ], [ -111.2316, 40.6196, 0.0 ], [ -111.2317, 40.6196, 0.0 ], [ -111.2326, 40.6194, 0.0 ], [ -111.2335, 40.6195, 0.0 ], [ -111.2478, 40.6255, 0.0 ], [ -111.2566, 40.6304, 0.0 ], [ -111.2592, 40.6327, 0.0 ], [ -111.2623, 40.6341, 0.0 ], [ -111.2637, 40.6348, 0.0 ], [ -111.2686, 40.6348, 0.0 ], [ -111.2684, 40.6344, 0.0 ], [ -111.2684, 40.6341, 0.0 ], [ -111.2682, 40.6338, 0.0 ], [ -111.2678, 40.6331, 0.0 ], [ -111.2678, 40.633, 0.0 ], [ -111.2677, 40.633, 0.0 ], [ -111.2676, 40.6326, 0.0 ], [ -111.2675, 40.6325, 0.0 ], [ -111.2674, 40.632, 0.0 ], [ -111.2673, 40.6316, 0.0 ], [ -111.2672, 40.6312, 0.0 ], [ -111.267, 40.6305, 0.0 ], [ -111.2669, 40.6301, 0.0 ], [ -111.2663, 40.6296, 0.0 ], [ -111.2661, 40.6294, 0.0 ], [ -111.2659, 40.629, 0.0 ], [ -111.2661, 40.6285, 0.0 ], [ -111.2662, 40.6282, 0.0 ], [ -111.2661, 40.6277, 0.0 ], [ -111.266, 40.6274, 0.0 ], [ -111.2659, 40.6272, 0.0 ], [ -111.2655, 40.6267, 0.0 ], [ -111.2655, 40.6262, 0.0 ], [ -111.2656, 40.6259, 0.0 ], [ -111.2658, 40.6256, 0.0 ], [ -111.2661, 40.6253, 0.0 ], [ -111.266, 40.6236, 0.0 ], [ -111.266, 40.6234, 0.0 ], [ -111.2659, 40.6232, 0.0 ], [ -111.2658, 40.623, 0.0 ], [ -111.2657, 40.6228, 0.0 ], [ -111.2656, 40.6226, 0.0 ], [ -111.2654, 40.6224, 0.0 ], [ -111.2645, 40.6215, 0.0 ], [ -111.2632, 40.6201, 0.0 ], [ -111.2631, 40.6199, 0.0 ], [ -111.263, 40.6198, 0.0 ], [ -111.2625, 40.6189, 0.0 ], [ -111.2626, 40.6189, 0.0 ], [ -111.262, 40.6183, 0.0 ], [ -111.2618, 40.6181, 0.0 ], [ -111.2617, 40.6179, 0.0 ], [ -111.2616, 40.6179, 0.0 ], [ -111.2616, 40.6178, 0.0 ], [ -111.2616, 40.6177, 0.0 ], [ -111.2617, 40.6173, 0.0 ], [ -111.2617, 40.6167, 0.0 ], [ -111.2616, 40.6161, 0.0 ], [ -111.2615, 40.6161, 0.0 ], [ -111.2615, 40.615, 0.0 ], [ -111.2615, 40.6106, 0.0 ], [ -111.2711, 40.6105, 0.0 ], [ -111.2712, 40.6105, 0.0 ], [ -111.2718, 40.6105, 0.0 ], [ -111.2779, 40.6105, 0.0 ], [ -111.2801, 40.6105, 0.0 ], [ -111.2807, 40.6105, 0.0 ], [ -111.2807, 40.6107, 0.0 ], [ -111.2806, 40.613, 0.0 ], [ -111.2806, 40.6146, 0.0 ], [ -111.2806, 40.6149, 0.0 ], [ -111.2806, 40.6152, 0.0 ], [ -111.2807, 40.6159, 0.0 ], [ -111.2807, 40.6164, 0.0 ], [ -111.2806, 40.6178, 0.0 ], [ -111.2783, 40.6179, 0.0 ], [ -111.2783, 40.6207, 0.0 ], [ -111.2779, 40.6209, 0.0 ], [ -111.2771, 40.6212, 0.0 ], [ -111.2759, 40.6217, 0.0 ], [ -111.2753, 40.6218, 0.0 ], [ -111.275, 40.6218, 0.0 ], [ -111.2744, 40.6217, 0.0 ], [ -111.2736, 40.6219, 0.0 ], [ -111.2736, 40.622, 0.0 ], [ -111.2735, 40.6242, 0.0 ], [ -111.2737, 40.6245, 0.0 ], [ -111.2738, 40.6249, 0.0 ], [ -111.2741, 40.6252, 0.0 ], [ -111.2742, 40.6252, 0.0 ], [ -111.2743, 40.6254, 0.0 ], [ -111.2743, 40.6261, 0.0 ], [ -111.2744, 40.6264, 0.0 ], [ -111.2747, 40.627, 0.0 ], [ -111.2749, 40.6272, 0.0 ], [ -111.2756, 40.6278, 0.0 ], [ -111.2764, 40.6282, 0.0 ], [ -111.278, 40.6287, 0.0 ], [ -111.2803, 40.6289, 0.0 ], [ -111.2807, 40.6289, 0.0 ], [ -111.2807, 40.6268, 0.0 ], [ -111.2807, 40.6252, 0.0 ], [ -111.2807, 40.6251, 0.0 ], [ -111.283, 40.6251, 0.0 ], [ -111.283, 40.6248, 0.0 ], [ -111.283, 40.6196, 0.0 ], [ -111.2831, 40.6195, 0.0 ], [ -111.2833, 40.6196, 0.0 ], [ -111.2835, 40.6196, 0.0 ], [ -111.2836, 40.6195, 0.0 ], [ -111.2837, 40.6195, 0.0 ], [ -111.2837, 40.6194, 0.0 ], [ -111.2838, 40.6193, 0.0 ], [ -111.2838, 40.6192, 0.0 ], [ -111.2845, 40.6191, 0.0 ], [ -111.2847, 40.619, 0.0 ], [ -111.2849, 40.619, 0.0 ], [ -111.285, 40.6189, 0.0 ], [ -111.285, 40.6188, 0.0 ], [ -111.2851, 40.6188, 0.0 ], [ -111.2852, 40.6187, 0.0 ], [ -111.2853, 40.6187, 0.0 ], [ -111.2855, 40.6187, 0.0 ], [ -111.2856, 40.6187, 0.0 ], [ -111.2858, 40.6188, 0.0 ], [ -111.286, 40.6189, 0.0 ], [ -111.2862, 40.619, 0.0 ], [ -111.2863, 40.6191, 0.0 ], [ -111.2865, 40.6191, 0.0 ], [ -111.2866, 40.6192, 0.0 ], [ -111.2868, 40.6191, 0.0 ], [ -111.2872, 40.6191, 0.0 ], [ -111.2876, 40.619, 0.0 ], [ -111.288, 40.6189, 0.0 ], [ -111.2882, 40.6189, 0.0 ], [ -111.2883, 40.6188, 0.0 ], [ -111.2885, 40.6187, 0.0 ], [ -111.2885, 40.6186, 0.0 ], [ -111.2886, 40.6185, 0.0 ], [ -111.2886, 40.6183, 0.0 ], [ -111.2886, 40.6181, 0.0 ], [ -111.2886, 40.6176, 0.0 ], [ -111.2891, 40.6177, 0.0 ], [ -111.2895, 40.6177, 0.0 ], [ -111.2896, 40.6178, 0.0 ], [ -111.2897, 40.618, 0.0 ], [ -111.2891, 40.6184, 0.0 ], [ -111.2892, 40.6219, 0.0 ], [ -111.2893, 40.6251, 0.0 ], [ -111.2903, 40.6252, 0.0 ], [ -111.2903, 40.6228, 0.0 ], [ -111.2903, 40.6219, 0.0 ], [ -111.2936, 40.6219, 0.0 ], [ -111.2949, 40.6219, 0.0 ], [ -111.2949, 40.6215, 0.0 ], [ -111.2951, 40.6214, 0.0 ], [ -111.2951, 40.6206, 0.0 ], [ -111.2959, 40.6209, 0.0 ], [ -111.2973, 40.6218, 0.0 ], [ -111.2983, 40.6225, 0.0 ], [ -111.2987, 40.623, 0.0 ], [ -111.2991, 40.6236, 0.0 ], [ -111.2991, 40.6237, 0.0 ], [ -111.2995, 40.6248, 0.0 ], [ -111.2997, 40.6251, 0.0 ], [ -111.2999, 40.6251, 0.0 ], [ -111.2999, 40.6203, 0.0 ], [ -111.2999, 40.62, 0.0 ], [ -111.2999, 40.6196, 0.0 ], [ -111.2999, 40.6183, 0.0 ], [ -111.2992, 40.6183, 0.0 ], [ -111.299, 40.6183, 0.0 ], [ -111.2984, 40.6183, 0.0 ], [ -111.2963, 40.6183, 0.0 ], [ -111.296, 40.6183, 0.0 ], [ -111.2959, 40.6183, 0.0 ], [ -111.2959, 40.6184, 0.0 ], [ -111.2958, 40.6184, 0.0 ], [ -111.2957, 40.6185, 0.0 ], [ -111.2957, 40.6186, 0.0 ], [ -111.2956, 40.6188, 0.0 ], [ -111.2955, 40.6189, 0.0 ], [ -111.2955, 40.619, 0.0 ], [ -111.2948, 40.619, 0.0 ], [ -111.2946, 40.619, 0.0 ], [ -111.2944, 40.619, 0.0 ], [ -111.2942, 40.6189, 0.0 ], [ -111.2941, 40.6189, 0.0 ], [ -111.2939, 40.6188, 0.0 ], [ -111.2937, 40.6187, 0.0 ], [ -111.2936, 40.6187, 0.0 ], [ -111.2934, 40.6186, 0.0 ], [ -111.2932, 40.6184, 0.0 ], [ -111.2931, 40.6183, 0.0 ], [ -111.293, 40.6182, 0.0 ], [ -111.2929, 40.6181, 0.0 ], [ -111.2928, 40.6179, 0.0 ], [ -111.2928, 40.6178, 0.0 ], [ -111.2927, 40.6177, 0.0 ], [ -111.2927, 40.6176, 0.0 ], [ -111.2927, 40.6175, 0.0 ], [ -111.2927, 40.6174, 0.0 ], [ -111.2927, 40.6173, 0.0 ], [ -111.2927, 40.6172, 0.0 ], [ -111.2928, 40.617, 0.0 ], [ -111.2928, 40.6169, 0.0 ], [ -111.2928, 40.6168, 0.0 ], [ -111.2929, 40.6167, 0.0 ], [ -111.2931, 40.6165, 0.0 ], [ -111.2932, 40.6163, 0.0 ], [ -111.2937, 40.6159, 0.0 ], [ -111.294, 40.6155, 0.0 ], [ -111.2947, 40.615, 0.0 ], [ -111.2953, 40.6144, 0.0 ], [ -111.2956, 40.6146, 0.0 ], [ -111.2959, 40.6147, 0.0 ], [ -111.2962, 40.6148, 0.0 ], [ -111.2965, 40.6148, 0.0 ], [ -111.2968, 40.6149, 0.0 ], [ -111.297, 40.615, 0.0 ], [ -111.2972, 40.6151, 0.0 ], [ -111.2974, 40.6151, 0.0 ], [ -111.2975, 40.6152, 0.0 ], [ -111.2977, 40.6152, 0.0 ], [ -111.298, 40.6152, 0.0 ], [ -111.2995, 40.6155, 0.0 ], [ -111.2996, 40.6156, 0.0 ], [ -111.2997, 40.6156, 0.0 ], [ -111.2998, 40.6156, 0.0 ], [ -111.2998, 40.6157, 0.0 ], [ -111.2999, 40.6157, 0.0 ], [ -111.2999, 40.6158, 0.0 ], [ -111.2999, 40.6159, 0.0 ], [ -111.2998, 40.6168, 0.0 ], [ -111.2998, 40.617, 0.0 ], [ -111.3, 40.617, 0.0 ], [ -111.3002, 40.617, 0.0 ], [ -111.3004, 40.617, 0.0 ], [ -111.3005, 40.6171, 0.0 ], [ -111.3006, 40.6171, 0.0 ], [ -111.3007, 40.6171, 0.0 ], [ -111.3008, 40.6172, 0.0 ], [ -111.3009, 40.6172, 0.0 ], [ -111.301, 40.6171, 0.0 ], [ -111.3011, 40.6171, 0.0 ], [ -111.3011, 40.6169, 0.0 ], [ -111.3011, 40.6168, 0.0 ], [ -111.3014, 40.616, 0.0 ], [ -111.3017, 40.6148, 0.0 ], [ -111.3021, 40.6137, 0.0 ], [ -111.3023, 40.6135, 0.0 ], [ -111.3025, 40.6131, 0.0 ], [ -111.3011, 40.6126, 0.0 ], [ -111.301, 40.6118, 0.0 ], [ -111.3014, 40.6117, 0.0 ], [ -111.3018, 40.6116, 0.0 ], [ -111.3022, 40.6114, 0.0 ], [ -111.3027, 40.6113, 0.0 ], [ -111.3032, 40.611, 0.0 ], [ -111.3055, 40.61, 0.0 ], [ -111.3054, 40.6094, 0.0 ], [ -111.3054, 40.609, 0.0 ], [ -111.3058, 40.6085, 0.0 ], [ -111.3037, 40.6062, 0.0 ], [ -111.3033, 40.6059, 0.0 ], [ -111.303, 40.606, 0.0 ], [ -111.3026, 40.6061, 0.0 ], [ -111.3021, 40.6064, 0.0 ], [ -111.3018, 40.6065, 0.0 ], [ -111.3017, 40.6067, 0.0 ], [ -111.3016, 40.6069, 0.0 ], [ -111.3015, 40.607, 0.0 ], [ -111.3011, 40.6072, 0.0 ], [ -111.3007, 40.6074, 0.0 ], [ -111.3003, 40.6075, 0.0 ], [ -111.2999, 40.6076, 0.0 ], [ -111.2994, 40.6075, 0.0 ], [ -111.299, 40.6078, 0.0 ], [ -111.2985, 40.6081, 0.0 ], [ -111.2981, 40.6083, 0.0 ], [ -111.2976, 40.6086, 0.0 ], [ -111.2971, 40.6087, 0.0 ], [ -111.2966, 40.6087, 0.0 ], [ -111.2959, 40.6085, 0.0 ], [ -111.2954, 40.6084, 0.0 ], [ -111.2949, 40.6083, 0.0 ], [ -111.2944, 40.6082, 0.0 ], [ -111.2939, 40.6081, 0.0 ], [ -111.2933, 40.6078, 0.0 ], [ -111.2928, 40.6074, 0.0 ], [ -111.2925, 40.6069, 0.0 ], [ -111.2925, 40.6064, 0.0 ], [ -111.2925, 40.6059, 0.0 ], [ -111.2924, 40.6051, 0.0 ], [ -111.2925, 40.6048, 0.0 ], [ -111.2926, 40.6045, 0.0 ], [ -111.2926, 40.6041, 0.0 ], [ -111.2926, 40.6038, 0.0 ], [ -111.2928, 40.6035, 0.0 ], [ -111.2928, 40.6033, 0.0 ], [ -111.2927, 40.6029, 0.0 ], [ -111.2926, 40.6024, 0.0 ], [ -111.2923, 40.6021, 0.0 ], [ -111.2921, 40.6019, 0.0 ], [ -111.2914, 40.6015, 0.0 ], [ -111.291, 40.6011, 0.0 ], [ -111.2907, 40.6008, 0.0 ], [ -111.2903, 40.6005, 0.0 ], [ -111.2899, 40.6002, 0.0 ], [ -111.2898, 40.6001, 0.0 ], [ -111.2885, 40.5993, 0.0 ], [ -111.2881, 40.599, 0.0 ], [ -111.2879, 40.5987, 0.0 ], [ -111.2878, 40.5985, 0.0 ], [ -111.2876, 40.5982, 0.0 ], [ -111.2869, 40.598, 0.0 ], [ -111.2862, 40.5978, 0.0 ], [ -111.2858, 40.5974, 0.0 ], [ -111.2855, 40.5971, 0.0 ], [ -111.2851, 40.597, 0.0 ], [ -111.2845, 40.597, 0.0 ], [ -111.2838, 40.5969, 0.0 ], [ -111.283, 40.5967, 0.0 ], [ -111.2823, 40.5964, 0.0 ], [ -111.2816, 40.5959, 0.0 ], [ -111.2808, 40.5959, 0.0 ], [ -111.2801, 40.5959, 0.0 ], [ -111.2796, 40.596, 0.0 ], [ -111.2791, 40.596, 0.0 ], [ -111.2786, 40.5959, 0.0 ], [ -111.2783, 40.5958, 0.0 ], [ -111.2782, 40.5956, 0.0 ], [ -111.2776, 40.5949, 0.0 ], [ -111.2773, 40.5948, 0.0 ], [ -111.2769, 40.5947, 0.0 ], [ -111.2765, 40.5947, 0.0 ], [ -111.2761, 40.5945, 0.0 ], [ -111.2758, 40.5942, 0.0 ], [ -111.2756, 40.5937, 0.0 ], [ -111.2754, 40.5935, 0.0 ], [ -111.2748, 40.5933, 0.0 ], [ -111.2746, 40.5932, 0.0 ], [ -111.2738, 40.5928, 0.0 ], [ -111.2736, 40.5928, 0.0 ], [ -111.2731, 40.5928, 0.0 ], [ -111.2728, 40.5927, 0.0 ], [ -111.2724, 40.592, 0.0 ], [ -111.2722, 40.5916, 0.0 ], [ -111.2719, 40.5913, 0.0 ], [ -111.271, 40.5908, 0.0 ], [ -111.2705, 40.5905, 0.0 ], [ -111.2702, 40.5901, 0.0 ], [ -111.2696, 40.5898, 0.0 ], [ -111.2682, 40.589, 0.0 ], [ -111.2674, 40.5887, 0.0 ], [ -111.2667, 40.5881, 0.0 ], [ -111.2663, 40.5878, 0.0 ], [ -111.2657, 40.5875, 0.0 ], [ -111.2651, 40.5873, 0.0 ], [ -111.265, 40.5873, 0.0 ], [ -111.2633, 40.5869, 0.0 ], [ -111.2625, 40.5866, 0.0 ], [ -111.2623, 40.5865, 0.0 ], [ -111.2612, 40.5858, 0.0 ], [ -111.2609, 40.5856, 0.0 ], [ -111.2606, 40.5854, 0.0 ], [ -111.2603, 40.5854, 0.0 ], [ -111.26, 40.5855, 0.0 ], [ -111.2598, 40.5857, 0.0 ], [ -111.2593, 40.5858, 0.0 ], [ -111.259, 40.5859, 0.0 ], [ -111.2586, 40.5857, 0.0 ], [ -111.2583, 40.5854, 0.0 ], [ -111.2579, 40.5853, 0.0 ], [ -111.2575, 40.5851, 0.0 ], [ -111.257, 40.5847, 0.0 ], [ -111.2567, 40.5846, 0.0 ], [ -111.2563, 40.5846, 0.0 ], [ -111.2559, 40.5845, 0.0 ], [ -111.2555, 40.5844, 0.0 ], [ -111.2552, 40.5843, 0.0 ], [ -111.255, 40.5839, 0.0 ], [ -111.2548, 40.5838, 0.0 ], [ -111.2546, 40.5836, 0.0 ], [ -111.2542, 40.5834, 0.0 ], [ -111.2538, 40.5833, 0.0 ], [ -111.2534, 40.5833, 0.0 ], [ -111.2532, 40.5832, 0.0 ], [ -111.253, 40.5831, 0.0 ], [ -111.253, 40.5829, 0.0 ], [ -111.253, 40.5825, 0.0 ], [ -111.253, 40.5822, 0.0 ], [ -111.2529, 40.582, 0.0 ], [ -111.2528, 40.5819, 0.0 ], [ -111.2526, 40.5817, 0.0 ], [ -111.2524, 40.5815, 0.0 ], [ -111.2521, 40.5814, 0.0 ], [ -111.2508, 40.5812, 0.0 ], [ -111.2504, 40.5811, 0.0 ], [ -111.2501, 40.581, 0.0 ], [ -111.2497, 40.5808, 0.0 ], [ -111.2493, 40.5806, 0.0 ], [ -111.2488, 40.5804, 0.0 ], [ -111.2486, 40.5802, 0.0 ], [ -111.2482, 40.5801, 0.0 ], [ -111.2475, 40.5801, 0.0 ], [ -111.2469, 40.58, 0.0 ], [ -111.2464, 40.58, 0.0 ], [ -111.2456, 40.5796, 0.0 ], [ -111.2443, 40.579, 0.0 ], [ -111.2437, 40.5788, 0.0 ], [ -111.2433, 40.5788, 0.0 ], [ -111.2428, 40.5787, 0.0 ], [ -111.2423, 40.5786, 0.0 ], [ -111.2415, 40.5785, 0.0 ], [ -111.2411, 40.5782, 0.0 ], [ -111.2404, 40.5779, 0.0 ], [ -111.24, 40.5778, 0.0 ], [ -111.2394, 40.5777, 0.0 ], [ -111.2385, 40.5775, 0.0 ], [ -111.2381, 40.5775, 0.0 ], [ -111.2375, 40.5773, 0.0 ], [ -111.2361, 40.5775, 0.0 ], [ -111.2357, 40.5776, 0.0 ], [ -111.2353, 40.5776, 0.0 ], [ -111.235, 40.5776, 0.0 ], [ -111.2347, 40.5774, 0.0 ], [ -111.2343, 40.5773, 0.0 ], [ -111.234, 40.5773, 0.0 ], [ -111.2337, 40.5775, 0.0 ], [ -111.2335, 40.5777, 0.0 ], [ -111.2331, 40.5778, 0.0 ], [ -111.2329, 40.5778, 0.0 ], [ -111.2325, 40.5778, 0.0 ], [ -111.2321, 40.5781, 0.0 ], [ -111.2317, 40.5783, 0.0 ], [ -111.2314, 40.5783, 0.0 ], [ -111.2311, 40.5782, 0.0 ], [ -111.2308, 40.5781, 0.0 ], [ -111.2304, 40.5778, 0.0 ], [ -111.2301, 40.5776, 0.0 ], [ -111.2297, 40.5774, 0.0 ], [ -111.2294, 40.5773, 0.0 ], [ -111.2291, 40.5773, 0.0 ], [ -111.2287, 40.5773, 0.0 ], [ -111.2283, 40.5772, 0.0 ], [ -111.2279, 40.5771, 0.0 ], [ -111.2279, 40.577, 0.0 ], [ -111.2279, 40.5766, 0.0 ], [ -111.2279, 40.5765, 0.0 ], [ -111.2279, 40.5763, 0.0 ], [ -111.2279, 40.5762, 0.0 ], [ -111.2279, 40.576, 0.0 ], [ -111.2279, 40.5758, 0.0 ], [ -111.2279, 40.5756, 0.0 ], [ -111.2279, 40.5753, 0.0 ], [ -111.2279, 40.5751, 0.0 ], [ -111.2279, 40.575, 0.0 ], [ -111.2279, 40.5748, 0.0 ], [ -111.2279, 40.5747, 0.0 ], [ -111.2279, 40.5746, 0.0 ], [ -111.2279, 40.5745, 0.0 ], [ -111.2279, 40.5743, 0.0 ], [ -111.2279, 40.5739, 0.0 ], [ -111.2281, 40.5735, 0.0 ], [ -111.2282, 40.5734, 0.0 ], [ -111.2282, 40.5732, 0.0 ], [ -111.2283, 40.5729, 0.0 ], [ -111.2284, 40.5728, 0.0 ], [ -111.2285, 40.5726, 0.0 ], [ -111.2285, 40.5724, 0.0 ], [ -111.2286, 40.5722, 0.0 ], [ -111.2287, 40.572, 0.0 ], [ -111.2287, 40.5718, 0.0 ], [ -111.2287, 40.5717, 0.0 ], [ -111.2287, 40.5715, 0.0 ], [ -111.2287, 40.5714, 0.0 ], [ -111.2286, 40.5713, 0.0 ], [ -111.2284, 40.5712, 0.0 ], [ -111.2283, 40.5711, 0.0 ], [ -111.228, 40.5709, 0.0 ], [ -111.2278, 40.5708, 0.0 ], [ -111.2276, 40.5707, 0.0 ], [ -111.2273, 40.5706, 0.0 ], [ -111.2271, 40.5705, 0.0 ], [ -111.2268, 40.5703, 0.0 ], [ -111.2266, 40.5703, 0.0 ], [ -111.2264, 40.5702, 0.0 ], [ -111.2262, 40.5702, 0.0 ], [ -111.2259, 40.5701, 0.0 ], [ -111.2256, 40.5701, 0.0 ], [ -111.2254, 40.5701, 0.0 ], [ -111.2252, 40.57, 0.0 ], [ -111.2249, 40.57, 0.0 ], [ -111.2247, 40.5699, 0.0 ], [ -111.2245, 40.5699, 0.0 ], [ -111.2243, 40.5698, 0.0 ], [ -111.2241, 40.5696, 0.0 ], [ -111.224, 40.5695, 0.0 ], [ -111.2239, 40.5694, 0.0 ], [ -111.2237, 40.5692, 0.0 ], [ -111.2236, 40.569, 0.0 ], [ -111.2234, 40.5688, 0.0 ], [ -111.2233, 40.5687, 0.0 ], [ -111.2231, 40.5685, 0.0 ], [ -111.2229, 40.5684, 0.0 ], [ -111.2227, 40.5683, 0.0 ], [ -111.2226, 40.5681, 0.0 ], [ -111.2224, 40.5681, 0.0 ], [ -111.2222, 40.5679, 0.0 ], [ -111.222, 40.5678, 0.0 ], [ -111.2218, 40.5677, 0.0 ], [ -111.2217, 40.5676, 0.0 ], [ -111.2215, 40.5675, 0.0 ], [ -111.2213, 40.5673, 0.0 ], [ -111.2211, 40.5672, 0.0 ], [ -111.2209, 40.5671, 0.0 ], [ -111.2207, 40.567, 0.0 ], [ -111.2205, 40.5669, 0.0 ], [ -111.2204, 40.5668, 0.0 ], [ -111.2202, 40.5667, 0.0 ], [ -111.22, 40.5666, 0.0 ], [ -111.2196, 40.5664, 0.0 ], [ -111.2194, 40.5663, 0.0 ], [ -111.2192, 40.5663, 0.0 ], [ -111.219, 40.5662, 0.0 ], [ -111.2189, 40.5662, 0.0 ], [ -111.2187, 40.5661, 0.0 ], [ -111.2186, 40.5661, 0.0 ], [ -111.2183, 40.566, 0.0 ], [ -111.2182, 40.5659, 0.0 ], [ -111.2181, 40.5658, 0.0 ], [ -111.218, 40.5657, 0.0 ], [ -111.2178, 40.5656, 0.0 ], [ -111.2177, 40.5655, 0.0 ], [ -111.2176, 40.5654, 0.0 ], [ -111.2175, 40.5652, 0.0 ], [ -111.2173, 40.565, 0.0 ], [ -111.2171, 40.5648, 0.0 ], [ -111.2169, 40.5647, 0.0 ], [ -111.2167, 40.5646, 0.0 ], [ -111.2165, 40.5645, 0.0 ], [ -111.2163, 40.5644, 0.0 ], [ -111.216, 40.5643, 0.0 ], [ -111.2158, 40.5642, 0.0 ], [ -111.2155, 40.5641, 0.0 ], [ -111.2153, 40.564, 0.0 ], [ -111.2151, 40.5639, 0.0 ], [ -111.2148, 40.5638, 0.0 ], [ -111.2146, 40.5638, 0.0 ], [ -111.2143, 40.5636, 0.0 ], [ -111.214, 40.5635, 0.0 ], [ -111.2137, 40.5634, 0.0 ], [ -111.2135, 40.5633, 0.0 ], [ -111.2127, 40.5631, 0.0 ], [ -111.2125, 40.563, 0.0 ], [ -111.2122, 40.5628, 0.0 ], [ -111.212, 40.5627, 0.0 ], [ -111.2118, 40.5627, 0.0 ], [ -111.2117, 40.5626, 0.0 ], [ -111.2116, 40.5625, 0.0 ], [ -111.2113, 40.5623, 0.0 ], [ -111.2112, 40.5622, 0.0 ], [ -111.211, 40.5621, 0.0 ], [ -111.2106, 40.5619, 0.0 ], [ -111.2104, 40.5617, 0.0 ], [ -111.2101, 40.5615, 0.0 ], [ -111.2098, 40.5613, 0.0 ], [ -111.2095, 40.5612, 0.0 ], [ -111.2092, 40.561, 0.0 ], [ -111.2089, 40.5608, 0.0 ], [ -111.2085, 40.5607, 0.0 ], [ -111.2082, 40.5606, 0.0 ], [ -111.2079, 40.5605, 0.0 ], [ -111.2076, 40.5604, 0.0 ], [ -111.2073, 40.5603, 0.0 ], [ -111.2069, 40.5602, 0.0 ], [ -111.2067, 40.5601, 0.0 ], [ -111.2063, 40.56, 0.0 ], [ -111.2061, 40.5599, 0.0 ], [ -111.2059, 40.5598, 0.0 ], [ -111.2056, 40.5597, 0.0 ], [ -111.2054, 40.5596, 0.0 ], [ -111.2052, 40.5595, 0.0 ], [ -111.205, 40.5593, 0.0 ], [ -111.2047, 40.5592, 0.0 ], [ -111.2045, 40.5591, 0.0 ], [ -111.2042, 40.559, 0.0 ], [ -111.204, 40.5589, 0.0 ], [ -111.2034, 40.5586, 0.0 ], [ -111.2031, 40.5585, 0.0 ], [ -111.2029, 40.5584, 0.0 ], [ -111.2006, 40.5578, 0.0 ], [ -111.1989, 40.5574, 0.0 ], [ -111.1976, 40.557, 0.0 ], [ -111.196, 40.5566, 0.0 ], [ -111.1953, 40.5564, 0.0 ], [ -111.1951, 40.5563, 0.0 ], [ -111.1946, 40.5563, 0.0 ], [ -111.1936, 40.5562, 0.0 ], [ -111.1931, 40.5562, 0.0 ], [ -111.1925, 40.5561, 0.0 ], [ -111.1923, 40.556, 0.0 ], [ -111.192, 40.5559, 0.0 ], [ -111.1918, 40.5558, 0.0 ], [ -111.1915, 40.5557, 0.0 ], [ -111.191, 40.5554, 0.0 ], [ -111.1905, 40.555, 0.0 ], [ -111.1895, 40.5543, 0.0 ], [ -111.1888, 40.5538, 0.0 ], [ -111.1884, 40.5535, 0.0 ], [ -111.188, 40.5533, 0.0 ], [ -111.1877, 40.5531, 0.0 ], [ -111.1873, 40.5529, 0.0 ], [ -111.1868, 40.5527, 0.0 ], [ -111.1865, 40.5527, 0.0 ], [ -111.1862, 40.5526, 0.0 ], [ -111.186, 40.5526, 0.0 ], [ -111.1857, 40.5526, 0.0 ], [ -111.1855, 40.5526, 0.0 ], [ -111.1851, 40.5526, 0.0 ], [ -111.1849, 40.5526, 0.0 ], [ -111.1847, 40.5527, 0.0 ], [ -111.1845, 40.5527, 0.0 ], [ -111.1843, 40.5528, 0.0 ], [ -111.184, 40.5529, 0.0 ], [ -111.1836, 40.553, 0.0 ], [ -111.1833, 40.5531, 0.0 ], [ -111.1831, 40.5532, 0.0 ], [ -111.1828, 40.5532, 0.0 ], [ -111.1826, 40.5533, 0.0 ], [ -111.1823, 40.5534, 0.0 ], [ -111.182, 40.5535, 0.0 ], [ -111.1817, 40.5536, 0.0 ], [ -111.1814, 40.5536, 0.0 ], [ -111.1811, 40.5537, 0.0 ], [ -111.1808, 40.5537, 0.0 ], [ -111.1805, 40.5537, 0.0 ], [ -111.1801, 40.5537, 0.0 ], [ -111.1799, 40.5537, 0.0 ], [ -111.1793, 40.5536, 0.0 ], [ -111.179, 40.5536, 0.0 ], [ -111.1783, 40.5536, 0.0 ], [ -111.1777, 40.5536, 0.0 ], [ -111.1774, 40.5536, 0.0 ], [ -111.1771, 40.5536, 0.0 ], [ -111.1768, 40.5535, 0.0 ], [ -111.1765, 40.5535, 0.0 ], [ -111.1761, 40.5535, 0.0 ], [ -111.1758, 40.5535, 0.0 ], [ -111.1753, 40.5535, 0.0 ], [ -111.1751, 40.5535, 0.0 ], [ -111.1749, 40.5535, 0.0 ], [ -111.1744, 40.5534, 0.0 ], [ -111.1742, 40.5534, 0.0 ], [ -111.174, 40.5534, 0.0 ], [ -111.1736, 40.5534, 0.0 ], [ -111.1734, 40.5534, 0.0 ], [ -111.173, 40.5535, 0.0 ], [ -111.1728, 40.5535, 0.0 ], [ -111.1726, 40.5535, 0.0 ], [ -111.1725, 40.5535, 0.0 ], [ -111.1722, 40.5536, 0.0 ], [ -111.1721, 40.5536, 0.0 ], [ -111.172, 40.5537, 0.0 ], [ -111.1718, 40.5537, 0.0 ], [ -111.1716, 40.5538, 0.0 ], [ -111.1715, 40.5538, 0.0 ], [ -111.1713, 40.5538, 0.0 ], [ -111.1711, 40.5539, 0.0 ], [ -111.171, 40.5539, 0.0 ], [ -111.1708, 40.5539, 0.0 ], [ -111.1704, 40.5539, 0.0 ], [ -111.1702, 40.554, 0.0 ], [ -111.17, 40.554, 0.0 ], [ -111.1698, 40.554, 0.0 ], [ -111.1696, 40.554, 0.0 ], [ -111.1694, 40.5539, 0.0 ], [ -111.1692, 40.5539, 0.0 ], [ -111.1689, 40.5538, 0.0 ], [ -111.1686, 40.5537, 0.0 ], [ -111.1684, 40.5536, 0.0 ], [ -111.1681, 40.5536, 0.0 ], [ -111.1677, 40.5534, 0.0 ], [ -111.1675, 40.5534, 0.0 ], [ -111.1673, 40.5533, 0.0 ], [ -111.1671, 40.5533, 0.0 ], [ -111.1669, 40.5534, 0.0 ], [ -111.1668, 40.5534, 0.0 ], [ -111.1666, 40.5535, 0.0 ], [ -111.1664, 40.5536, 0.0 ], [ -111.1662, 40.5537, 0.0 ], [ -111.166, 40.5538, 0.0 ], [ -111.166, 40.5539, 0.0 ], [ -111.1659, 40.554, 0.0 ], [ -111.1658, 40.5541, 0.0 ], [ -111.1657, 40.5542, 0.0 ], [ -111.1656, 40.5544, 0.0 ], [ -111.1655, 40.5545, 0.0 ], [ -111.1654, 40.5546, 0.0 ], [ -111.1653, 40.5546, 0.0 ], [ -111.1652, 40.5546, 0.0 ], [ -111.1651, 40.5547, 0.0 ], [ -111.1647, 40.5547, 0.0 ], [ -111.1646, 40.5545, 0.0 ], [ -111.1646, 40.5543, 0.0 ], [ -111.1645, 40.554, 0.0 ], [ -111.1643, 40.5536, 0.0 ], [ -111.1635, 40.5528, 0.0 ], [ -111.1629, 40.552, 0.0 ], [ -111.1628, 40.5519, 0.0 ], [ -111.1626, 40.5516, 0.0 ], [ -111.1624, 40.5513, 0.0 ], [ -111.1622, 40.5511, 0.0 ], [ -111.1619, 40.551, 0.0 ], [ -111.1616, 40.5509, 0.0 ], [ -111.161, 40.5508, 0.0 ], [ -111.1606, 40.5507, 0.0 ], [ -111.1601, 40.5506, 0.0 ], [ -111.1598, 40.5504, 0.0 ], [ -111.1596, 40.5502, 0.0 ], [ -111.159, 40.55, 0.0 ], [ -111.1588, 40.5499, 0.0 ], [ -111.1586, 40.5498, 0.0 ], [ -111.1585, 40.5498, 0.0 ], [ -111.1577, 40.5495, 0.0 ], [ -111.1575, 40.5493, 0.0 ], [ -111.157, 40.5491, 0.0 ], [ -111.1555, 40.5489, 0.0 ], [ -111.1531, 40.549, 0.0 ], [ -111.1524, 40.5487, 0.0 ], [ -111.1519, 40.5484, 0.0 ], [ -111.1515, 40.5483, 0.0 ], [ -111.1512, 40.5484, 0.0 ], [ -111.1506, 40.5485, 0.0 ], [ -111.1499, 40.5488, 0.0 ], [ -111.1494, 40.549, 0.0 ], [ -111.1489, 40.5491, 0.0 ], [ -111.1485, 40.5492, 0.0 ], [ -111.1479, 40.5492, 0.0 ], [ -111.1475, 40.5493, 0.0 ], [ -111.1475, 40.5495, 0.0 ], [ -111.1474, 40.5497, 0.0 ], [ -111.1473, 40.5503, 0.0 ], [ -111.1471, 40.5507, 0.0 ], [ -111.1469, 40.5511, 0.0 ], [ -111.1468, 40.5512, 0.0 ], [ -111.1466, 40.5513, 0.0 ], [ -111.1461, 40.5513, 0.0 ], [ -111.1458, 40.5513, 0.0 ], [ -111.1456, 40.5513, 0.0 ], [ -111.1451, 40.5515, 0.0 ], [ -111.1447, 40.5518, 0.0 ], [ -111.144, 40.5526, 0.0 ], [ -111.1437, 40.553, 0.0 ], [ -111.1434, 40.5532, 0.0 ], [ -111.1431, 40.5533, 0.0 ], [ -111.1428, 40.5534, 0.0 ], [ -111.1425, 40.5535, 0.0 ], [ -111.1423, 40.5536, 0.0 ], [ -111.1417, 40.5541, 0.0 ], [ -111.1413, 40.5543, 0.0 ], [ -111.1409, 40.5544, 0.0 ], [ -111.1406, 40.5546, 0.0 ], [ -111.1403, 40.555, 0.0 ], [ -111.1402, 40.5555, 0.0 ], [ -111.14, 40.556, 0.0 ], [ -111.1398, 40.5564, 0.0 ], [ -111.1396, 40.5566, 0.0 ], [ -111.1394, 40.5567, 0.0 ], [ -111.1389, 40.5569, 0.0 ], [ -111.1385, 40.5572, 0.0 ], [ -111.1383, 40.5572, 0.0 ], [ -111.1379, 40.5573, 0.0 ], [ -111.1377, 40.5573, 0.0 ], [ -111.1374, 40.5576, 0.0 ], [ -111.1373, 40.5578, 0.0 ], [ -111.1372, 40.558, 0.0 ], [ -111.1361, 40.5576, 0.0 ], [ -111.1357, 40.5575, 0.0 ], [ -111.1353, 40.5575, 0.0 ], [ -111.135, 40.5575, 0.0 ], [ -111.1347, 40.5575, 0.0 ], [ -111.1345, 40.5575, 0.0 ], [ -111.134, 40.5576, 0.0 ], [ -111.1328, 40.5579, 0.0 ], [ -111.1326, 40.5579, 0.0 ], [ -111.1323, 40.558, 0.0 ], [ -111.1318, 40.5581, 0.0 ], [ -111.1306, 40.5585, 0.0 ], [ -111.1303, 40.5586, 0.0 ], [ -111.13, 40.5587, 0.0 ], [ -111.1299, 40.5587, 0.0 ], [ -111.1297, 40.5587, 0.0 ], [ -111.1295, 40.5588, 0.0 ], [ -111.1292, 40.5588, 0.0 ], [ -111.1288, 40.5588, 0.0 ], [ -111.1283, 40.5589, 0.0 ], [ -111.1277, 40.559, 0.0 ], [ -111.1274, 40.559, 0.0 ], [ -111.127, 40.5591, 0.0 ], [ -111.1267, 40.5591, 0.0 ], [ -111.1264, 40.5591, 0.0 ], [ -111.1262, 40.5591, 0.0 ], [ -111.126, 40.5591, 0.0 ], [ -111.1257, 40.5592, 0.0 ], [ -111.1254, 40.5592, 0.0 ], [ -111.1249, 40.5592, 0.0 ], [ -111.1244, 40.5592, 0.0 ], [ -111.124, 40.5592, 0.0 ], [ -111.1236, 40.5591, 0.0 ], [ -111.1232, 40.5591, 0.0 ], [ -111.1227, 40.5591, 0.0 ], [ -111.1224, 40.559, 0.0 ], [ -111.1221, 40.559, 0.0 ], [ -111.1219, 40.559, 0.0 ], [ -111.1216, 40.5589, 0.0 ], [ -111.121, 40.5588, 0.0 ], [ -111.1205, 40.5587, 0.0 ], [ -111.1197, 40.5586, 0.0 ], [ -111.1183, 40.5584, 0.0 ], [ -111.118, 40.5584, 0.0 ], [ -111.1178, 40.5583, 0.0 ], [ -111.1174, 40.5583, 0.0 ], [ -111.1171, 40.5582, 0.0 ], [ -111.1169, 40.5582, 0.0 ], [ -111.1167, 40.5581, 0.0 ], [ -111.1164, 40.5581, 0.0 ], [ -111.1159, 40.558, 0.0 ], [ -111.1155, 40.5579, 0.0 ], [ -111.1151, 40.5578, 0.0 ], [ -111.1147, 40.5576, 0.0 ], [ -111.1144, 40.5575, 0.0 ], [ -111.114, 40.5574, 0.0 ], [ -111.1137, 40.5572, 0.0 ], [ -111.1136, 40.5571, 0.0 ], [ -111.1134, 40.557, 0.0 ], [ -111.1131, 40.5569, 0.0 ], [ -111.1129, 40.5567, 0.0 ], [ -111.1127, 40.5566, 0.0 ], [ -111.1124, 40.5564, 0.0 ], [ -111.112, 40.5561, 0.0 ], [ -111.1116, 40.5558, 0.0 ], [ -111.1113, 40.5556, 0.0 ], [ -111.1109, 40.5554, 0.0 ], [ -111.1105, 40.5551, 0.0 ], [ -111.1103, 40.5549, 0.0 ], [ -111.11, 40.5548, 0.0 ], [ -111.1098, 40.5546, 0.0 ], [ -111.1096, 40.5544, 0.0 ], [ -111.1095, 40.5544, 0.0 ], [ -111.1094, 40.5543, 0.0 ], [ -111.1093, 40.5542, 0.0 ], [ -111.1092, 40.5541, 0.0 ], [ -111.109, 40.5539, 0.0 ], [ -111.1089, 40.5538, 0.0 ], [ -111.1088, 40.5537, 0.0 ], [ -111.1085, 40.5534, 0.0 ], [ -111.1083, 40.5531, 0.0 ], [ -111.1082, 40.553, 0.0 ], [ -111.1081, 40.5529, 0.0 ], [ -111.108, 40.5528, 0.0 ], [ -111.1079, 40.5528, 0.0 ], [ -111.1079, 40.5527, 0.0 ], [ -111.1078, 40.5527, 0.0 ], [ -111.1077, 40.5526, 0.0 ], [ -111.1076, 40.5525, 0.0 ], [ -111.1075, 40.5525, 0.0 ], [ -111.1074, 40.5524, 0.0 ], [ -111.1072, 40.5524, 0.0 ], [ -111.1072, 40.5523, 0.0 ], [ -111.1071, 40.5523, 0.0 ], [ -111.107, 40.5523, 0.0 ], [ -111.1067, 40.5521, 0.0 ], [ -111.1061, 40.5519, 0.0 ], [ -111.1055, 40.5517, 0.0 ], [ -111.1049, 40.5515, 0.0 ], [ -111.1047, 40.5514, 0.0 ], [ -111.1045, 40.5513, 0.0 ], [ -111.1044, 40.5513, 0.0 ], [ -111.1042, 40.5512, 0.0 ], [ -111.1041, 40.5511, 0.0 ], [ -111.1037, 40.551, 0.0 ], [ -111.1036, 40.5509, 0.0 ], [ -111.1035, 40.5509, 0.0 ], [ -111.1034, 40.5508, 0.0 ], [ -111.1033, 40.5507, 0.0 ], [ -111.1031, 40.5507, 0.0 ], [ -111.1029, 40.5506, 0.0 ], [ -111.1028, 40.5505, 0.0 ], [ -111.1024, 40.5503, 0.0 ], [ -111.1023, 40.5502, 0.0 ], [ -111.102, 40.55, 0.0 ], [ -111.1018, 40.5499, 0.0 ], [ -111.1015, 40.5497, 0.0 ], [ -111.1014, 40.5496, 0.0 ], [ -111.1012, 40.5496, 0.0 ], [ -111.1008, 40.5494, 0.0 ], [ -111.1007, 40.5493, 0.0 ], [ -111.1006, 40.5493, 0.0 ], [ -111.1003, 40.5491, 0.0 ], [ -111.0999, 40.549, 0.0 ], [ -111.0997, 40.5489, 0.0 ], [ -111.0996, 40.5488, 0.0 ], [ -111.0994, 40.5488, 0.0 ], [ -111.0993, 40.5487, 0.0 ], [ -111.0991, 40.5486, 0.0 ], [ -111.099, 40.5486, 0.0 ], [ -111.099, 40.5485, 0.0 ], [ -111.0989, 40.5485, 0.0 ], [ -111.0988, 40.5484, 0.0 ], [ -111.0987, 40.5483, 0.0 ], [ -111.0986, 40.5483, 0.0 ], [ -111.0986, 40.5482, 0.0 ], [ -111.0984, 40.5481, 0.0 ], [ -111.0984, 40.548, 0.0 ], [ -111.0983, 40.5479, 0.0 ], [ -111.0981, 40.5477, 0.0 ], [ -111.098, 40.5476, 0.0 ], [ -111.0979, 40.5475, 0.0 ], [ -111.0978, 40.5474, 0.0 ], [ -111.0977, 40.5473, 0.0 ], [ -111.0976, 40.5472, 0.0 ], [ -111.0975, 40.5471, 0.0 ], [ -111.0974, 40.547, 0.0 ], [ -111.0973, 40.5469, 0.0 ], [ -111.0972, 40.5468, 0.0 ], [ -111.0971, 40.5467, 0.0 ], [ -111.0969, 40.5466, 0.0 ], [ -111.0967, 40.5464, 0.0 ], [ -111.0963, 40.5461, 0.0 ], [ -111.096, 40.5458, 0.0 ], [ -111.0959, 40.5458, 0.0 ], [ -111.0958, 40.5457, 0.0 ], [ -111.0958, 40.5456, 0.0 ], [ -111.0956, 40.5455, 0.0 ], [ -111.0955, 40.5453, 0.0 ], [ -111.0955, 40.5452, 0.0 ], [ -111.0954, 40.5451, 0.0 ], [ -111.0953, 40.5449, 0.0 ], [ -111.0952, 40.5445, 0.0 ], [ -111.0952, 40.5442, 0.0 ], [ -111.0953, 40.5439, 0.0 ], [ -111.0961, 40.5424, 0.0 ], [ -111.0963, 40.5421, 0.0 ], [ -111.0964, 40.5419, 0.0 ], [ -111.0964, 40.5417, 0.0 ], [ -111.0966, 40.541, 0.0 ], [ -111.0966, 40.5408, 0.0 ], [ -111.0967, 40.5406, 0.0 ], [ -111.0967, 40.5405, 0.0 ], [ -111.0968, 40.5403, 0.0 ], [ -111.0968, 40.5402, 0.0 ], [ -111.097, 40.54, 0.0 ], [ -111.0971, 40.5399, 0.0 ], [ -111.0972, 40.5397, 0.0 ], [ -111.0974, 40.5395, 0.0 ], [ -111.0978, 40.5391, 0.0 ], [ -111.0981, 40.5388, 0.0 ], [ -111.0982, 40.5387, 0.0 ], [ -111.0983, 40.5385, 0.0 ], [ -111.0984, 40.5384, 0.0 ], [ -111.0985, 40.5382, 0.0 ], [ -111.0986, 40.538, 0.0 ], [ -111.0987, 40.5378, 0.0 ], [ -111.0991, 40.537, 0.0 ], [ -111.0992, 40.5368, 0.0 ], [ -111.0992, 40.5366, 0.0 ], [ -111.0993, 40.5364, 0.0 ], [ -111.0993, 40.5362, 0.0 ], [ -111.0992, 40.5361, 0.0 ], [ -111.0992, 40.5359, 0.0 ], [ -111.0991, 40.5358, 0.0 ], [ -111.0991, 40.5356, 0.0 ], [ -111.099, 40.5354, 0.0 ], [ -111.0988, 40.5352, 0.0 ], [ -111.0987, 40.5351, 0.0 ], [ -111.0985, 40.5349, 0.0 ], [ -111.0984, 40.5347, 0.0 ], [ -111.0983, 40.5346, 0.0 ], [ -111.0982, 40.5344, 0.0 ], [ -111.0981, 40.5343, 0.0 ], [ -111.098, 40.5341, 0.0 ], [ -111.098, 40.534, 0.0 ], [ -111.098, 40.5337, 0.0 ], [ -111.0979, 40.5335, 0.0 ], [ -111.0979, 40.5332, 0.0 ], [ -111.0978, 40.5327, 0.0 ], [ -111.0978, 40.5325, 0.0 ], [ -111.0978, 40.5323, 0.0 ], [ -111.0978, 40.5322, 0.0 ], [ -111.0978, 40.5321, 0.0 ], [ -111.0977, 40.532, 0.0 ], [ -111.0976, 40.5318, 0.0 ], [ -111.0975, 40.5316, 0.0 ], [ -111.0972, 40.5313, 0.0 ], [ -111.0971, 40.5312, 0.0 ], [ -111.097, 40.531, 0.0 ], [ -111.0969, 40.5309, 0.0 ], [ -111.0967, 40.5308, 0.0 ], [ -111.0966, 40.5306, 0.0 ], [ -111.0963, 40.5304, 0.0 ], [ -111.096, 40.5302, 0.0 ], [ -111.0958, 40.53, 0.0 ], [ -111.0956, 40.5298, 0.0 ], [ -111.0953, 40.5295, 0.0 ], [ -111.0951, 40.5294, 0.0 ], [ -111.095, 40.5293, 0.0 ], [ -111.0948, 40.5292, 0.0 ], [ -111.0947, 40.5291, 0.0 ], [ -111.0944, 40.5289, 0.0 ], [ -111.0943, 40.5288, 0.0 ], [ -111.0942, 40.5287, 0.0 ], [ -111.0941, 40.5285, 0.0 ], [ -111.094, 40.5284, 0.0 ], [ -111.0939, 40.5283, 0.0 ], [ -111.0939, 40.5281, 0.0 ], [ -111.0939, 40.5278, 0.0 ], [ -111.0939, 40.5276, 0.0 ], [ -111.0939, 40.5273, 0.0 ], [ -111.0939, 40.527, 0.0 ], [ -111.0939, 40.5268, 0.0 ], [ -111.0937, 40.5268, 0.0 ], [ -111.0936, 40.5268, 0.0 ], [ -111.0931, 40.5259, 0.0 ], [ -111.0929, 40.5258, 0.0 ], [ -111.0928, 40.5258, 0.0 ], [ -111.0927, 40.5258, 0.0 ], [ -111.0926, 40.5262, 0.0 ], [ -111.0924, 40.5264, 0.0 ], [ -111.0922, 40.5266, 0.0 ], [ -111.0915, 40.5269, 0.0 ], [ -111.0915, 40.527, 0.0 ], [ -111.0912, 40.5278, 0.0 ], [ -111.091, 40.5285, 0.0 ], [ -111.0909, 40.5288, 0.0 ], [ -111.0909, 40.5291, 0.0 ], [ -111.0909, 40.5293, 0.0 ], [ -111.091, 40.5294, 0.0 ], [ -111.0911, 40.5295, 0.0 ], [ -111.0918, 40.5299, 0.0 ], [ -111.092, 40.5301, 0.0 ], [ -111.0921, 40.5302, 0.0 ], [ -111.0926, 40.5318, 0.0 ], [ -111.0933, 40.5329, 0.0 ], [ -111.0934, 40.533, 0.0 ], [ -111.0935, 40.5333, 0.0 ], [ -111.0936, 40.5335, 0.0 ], [ -111.0936, 40.5339, 0.0 ], [ -111.0934, 40.534, 0.0 ], [ -111.0932, 40.534, 0.0 ], [ -111.0923, 40.5342, 0.0 ], [ -111.092, 40.5342, 0.0 ], [ -111.0914, 40.5341, 0.0 ], [ -111.0906, 40.534, 0.0 ], [ -111.0899, 40.5338, 0.0 ], [ -111.0897, 40.5337, 0.0 ], [ -111.0893, 40.5334, 0.0 ], [ -111.089, 40.5332, 0.0 ], [ -111.0888, 40.5332, 0.0 ], [ -111.0884, 40.5332, 0.0 ], [ -111.0878, 40.5333, 0.0 ], [ -111.0876, 40.5334, 0.0 ], [ -111.0869, 40.5332, 0.0 ], [ -111.0862, 40.5332, 0.0 ], [ -111.0858, 40.5332, 0.0 ], [ -111.0857, 40.5332, 0.0 ], [ -111.0854, 40.5332, 0.0 ], [ -111.085, 40.5332, 0.0 ], [ -111.0845, 40.5331, 0.0 ], [ -111.0842, 40.533, 0.0 ], [ -111.0834, 40.5328, 0.0 ], [ -111.0827, 40.5329, 0.0 ], [ -111.0818, 40.5327, 0.0 ], [ -111.0812, 40.5325, 0.0 ], [ -111.0807, 40.5323, 0.0 ], [ -111.0804, 40.5322, 0.0 ], [ -111.0798, 40.5322, 0.0 ], [ -111.0792, 40.5322, 0.0 ], [ -111.0789, 40.5321, 0.0 ], [ -111.0779, 40.532, 0.0 ], [ -111.0775, 40.5319, 0.0 ], [ -111.0769, 40.5319, 0.0 ], [ -111.0757, 40.5321, 0.0 ], [ -111.0752, 40.5322, 0.0 ], [ -111.0744, 40.5325, 0.0 ], [ -111.0739, 40.5327, 0.0 ], [ -111.0737, 40.5328, 0.0 ], [ -111.0733, 40.533, 0.0 ], [ -111.0731, 40.5333, 0.0 ], [ -111.0725, 40.5339, 0.0 ], [ -111.0722, 40.5344, 0.0 ], [ -111.072, 40.5346, 0.0 ], [ -111.0717, 40.5349, 0.0 ], [ -111.0714, 40.535, 0.0 ], [ -111.0711, 40.5351, 0.0 ], [ -111.0708, 40.5351, 0.0 ], [ -111.0707, 40.535, 0.0 ], [ -111.0705, 40.5348, 0.0 ], [ -111.0704, 40.5348, 0.0 ], [ -111.0696, 40.5347, 0.0 ], [ -111.0695, 40.5347, 0.0 ], [ -111.0693, 40.5347, 0.0 ], [ -111.0689, 40.5347, 0.0 ], [ -111.0687, 40.5348, 0.0 ], [ -111.0681, 40.5349, 0.0 ], [ -111.0678, 40.5348, 0.0 ], [ -111.0674, 40.5346, 0.0 ], [ -111.0672, 40.5346, 0.0 ], [ -111.0669, 40.5346, 0.0 ], [ -111.0666, 40.5348, 0.0 ], [ -111.0661, 40.5353, 0.0 ], [ -111.0659, 40.5356, 0.0 ], [ -111.0654, 40.5361, 0.0 ], [ -111.0648, 40.537, 0.0 ], [ -111.0644, 40.5372, 0.0 ], [ -111.0642, 40.5372, 0.0 ], [ -111.0641, 40.5372, 0.0 ], [ -111.0622, 40.5366, 0.0 ], [ -111.0617, 40.5364, 0.0 ], [ -111.0614, 40.5362, 0.0 ], [ -111.0611, 40.536, 0.0 ], [ -111.0607, 40.5357, 0.0 ], [ -111.0599, 40.5354, 0.0 ], [ -111.0587, 40.5352, 0.0 ], [ -111.0571, 40.535, 0.0 ], [ -111.0563, 40.535, 0.0 ], [ -111.0555, 40.535, 0.0 ], [ -111.0547, 40.5351, 0.0 ], [ -111.0536, 40.5354, 0.0 ], [ -111.0532, 40.5354, 0.0 ], [ -111.0528, 40.5354, 0.0 ], [ -111.0525, 40.5354, 0.0 ], [ -111.0524, 40.5355, 0.0 ], [ -111.0521, 40.5354, 0.0 ], [ -111.0517, 40.5353, 0.0 ], [ -111.0514, 40.5352, 0.0 ], [ -111.0511, 40.5351, 0.0 ], [ -111.051, 40.535, 0.0 ], [ -111.0502, 40.535, 0.0 ], [ -111.0501, 40.5349, 0.0 ], [ -111.0499, 40.5348, 0.0 ], [ -111.0497, 40.5348, 0.0 ], [ -111.0493, 40.5346, 0.0 ], [ -111.0491, 40.5346, 0.0 ], [ -111.0487, 40.5346, 0.0 ], [ -111.0482, 40.5346, 0.0 ], [ -111.048, 40.5347, 0.0 ], [ -111.0478, 40.5347, 0.0 ], [ -111.0473, 40.5347, 0.0 ], [ -111.0469, 40.5347, 0.0 ], [ -111.0466, 40.5347, 0.0 ], [ -111.0464, 40.5347, 0.0 ], [ -111.0459, 40.5349, 0.0 ], [ -111.0459, 40.535, 0.0 ], [ -111.0458, 40.5351, 0.0 ], [ -111.0457, 40.5352, 0.0 ], [ -111.0457, 40.5354, 0.0 ], [ -111.0456, 40.5354, 0.0 ], [ -111.0455, 40.5355, 0.0 ], [ -111.0454, 40.5355, 0.0 ], [ -111.0453, 40.5355, 0.0 ], [ -111.0452, 40.5355, 0.0 ], [ -111.0445, 40.5353, 0.0 ], [ -111.044, 40.5351, 0.0 ], [ -111.0434, 40.535, 0.0 ], [ -111.0433, 40.5349, 0.0 ], [ -111.043, 40.5347, 0.0 ], [ -111.0428, 40.5346, 0.0 ], [ -111.0426, 40.5345, 0.0 ], [ -111.0425, 40.5344, 0.0 ], [ -111.0423, 40.5343, 0.0 ], [ -111.0422, 40.5342, 0.0 ], [ -111.0421, 40.5342, 0.0 ], [ -111.0418, 40.534, 0.0 ], [ -111.0416, 40.5338, 0.0 ], [ -111.0414, 40.5337, 0.0 ], [ -111.0412, 40.5336, 0.0 ], [ -111.0411, 40.5335, 0.0 ], [ -111.0403, 40.5329, 0.0 ], [ -111.0402, 40.5328, 0.0 ], [ -111.04, 40.5326, 0.0 ], [ -111.0398, 40.5325, 0.0 ], [ -111.0395, 40.5324, 0.0 ], [ -111.0393, 40.5323, 0.0 ], [ -111.0392, 40.5324, 0.0 ], [ -111.0391, 40.5327, 0.0 ], [ -111.039, 40.5328, 0.0 ], [ -111.0389, 40.533, 0.0 ], [ -111.0388, 40.5331, 0.0 ], [ -111.0387, 40.5332, 0.0 ], [ -111.0386, 40.5333, 0.0 ], [ -111.0385, 40.5333, 0.0 ], [ -111.0383, 40.5333, 0.0 ], [ -111.0382, 40.5333, 0.0 ], [ -111.0381, 40.5333, 0.0 ], [ -111.0379, 40.5332, 0.0 ], [ -111.0375, 40.533, 0.0 ], [ -111.0365, 40.5322, 0.0 ], [ -111.036, 40.5319, 0.0 ], [ -111.0355, 40.5317, 0.0 ], [ -111.035, 40.5315, 0.0 ], [ -111.0347, 40.5314, 0.0 ], [ -111.0346, 40.5314, 0.0 ], [ -111.0343, 40.5314, 0.0 ], [ -111.0339, 40.5313, 0.0 ], [ -111.0338, 40.5313, 0.0 ], [ -111.0337, 40.5313, 0.0 ], [ -111.0336, 40.5314, 0.0 ], [ -111.0334, 40.5314, 0.0 ], [ -111.0328, 40.5315, 0.0 ], [ -111.0322, 40.5316, 0.0 ], [ -111.0318, 40.5317, 0.0 ], [ -111.0319, 40.5318, 0.0 ], [ -111.0321, 40.5321, 0.0 ], [ -111.0325, 40.5325, 0.0 ], [ -111.0327, 40.5327, 0.0 ], [ -111.0327, 40.5328, 0.0 ], [ -111.0328, 40.5329, 0.0 ], [ -111.0329, 40.5332, 0.0 ], [ -111.0329, 40.5335, 0.0 ], [ -111.0328, 40.5348, 0.0 ], [ -111.0328, 40.5355, 0.0 ], [ -111.0328, 40.5356, 0.0 ], [ -111.0328, 40.5357, 0.0 ], [ -111.0329, 40.5359, 0.0 ], [ -111.0329, 40.536, 0.0 ], [ -111.033, 40.5361, 0.0 ], [ -111.0332, 40.5362, 0.0 ], [ -111.0336, 40.5364, 0.0 ], [ -111.0345, 40.5369, 0.0 ], [ -111.0358, 40.5375, 0.0 ], [ -111.0363, 40.5377, 0.0 ], [ -111.0377, 40.5381, 0.0 ], [ -111.0386, 40.5384, 0.0 ], [ -111.0387, 40.5385, 0.0 ], [ -111.0389, 40.5385, 0.0 ], [ -111.039, 40.5386, 0.0 ], [ -111.0392, 40.5386, 0.0 ], [ -111.0393, 40.5387, 0.0 ], [ -111.0395, 40.5387, 0.0 ], [ -111.0396, 40.5388, 0.0 ], [ -111.0397, 40.5389, 0.0 ], [ -111.0398, 40.5389, 0.0 ], [ -111.0399, 40.539, 0.0 ], [ -111.04, 40.5391, 0.0 ], [ -111.04, 40.5392, 0.0 ], [ -111.04, 40.5394, 0.0 ], [ -111.0401, 40.5394, 0.0 ], [ -111.0401, 40.5395, 0.0 ], [ -111.0402, 40.5397, 0.0 ], [ -111.0402, 40.5399, 0.0 ], [ -111.0403, 40.54, 0.0 ], [ -111.0403, 40.5401, 0.0 ], [ -111.0403, 40.5403, 0.0 ], [ -111.0404, 40.5404, 0.0 ], [ -111.0404, 40.5405, 0.0 ], [ -111.0404, 40.5406, 0.0 ], [ -111.0405, 40.5408, 0.0 ], [ -111.0405, 40.5409, 0.0 ], [ -111.0405, 40.541, 0.0 ], [ -111.0406, 40.5411, 0.0 ], [ -111.0406, 40.5412, 0.0 ], [ -111.0406, 40.5414, 0.0 ], [ -111.0407, 40.5415, 0.0 ], [ -111.0407, 40.5416, 0.0 ], [ -111.0407, 40.5417, 0.0 ], [ -111.0407, 40.5418, 0.0 ], [ -111.0406, 40.5419, 0.0 ], [ -111.0406, 40.542, 0.0 ], [ -111.0405, 40.5421, 0.0 ], [ -111.0404, 40.5422, 0.0 ], [ -111.0403, 40.5423, 0.0 ], [ -111.0401, 40.5424, 0.0 ], [ -111.04, 40.5424, 0.0 ], [ -111.0399, 40.5425, 0.0 ], [ -111.0398, 40.5426, 0.0 ], [ -111.0397, 40.5426, 0.0 ], [ -111.0396, 40.5427, 0.0 ], [ -111.0395, 40.5427, 0.0 ], [ -111.0394, 40.5427, 0.0 ], [ -111.0393, 40.5427, 0.0 ], [ -111.0391, 40.5427, 0.0 ], [ -111.0389, 40.5427, 0.0 ], [ -111.0388, 40.5427, 0.0 ], [ -111.0386, 40.5427, 0.0 ], [ -111.0385, 40.5426, 0.0 ], [ -111.0382, 40.5426, 0.0 ], [ -111.0381, 40.5425, 0.0 ], [ -111.038, 40.5425, 0.0 ], [ -111.0379, 40.5425, 0.0 ], [ -111.0378, 40.5424, 0.0 ], [ -111.0377, 40.5424, 0.0 ], [ -111.0376, 40.5423, 0.0 ], [ -111.0375, 40.5423, 0.0 ], [ -111.0374, 40.5422, 0.0 ], [ -111.0373, 40.5422, 0.0 ], [ -111.0371, 40.5421, 0.0 ], [ -111.0368, 40.5419, 0.0 ], [ -111.0367, 40.5419, 0.0 ], [ -111.0366, 40.5418, 0.0 ], [ -111.0364, 40.5417, 0.0 ], [ -111.0362, 40.5416, 0.0 ], [ -111.036, 40.5416, 0.0 ], [ -111.0359, 40.5415, 0.0 ], [ -111.0358, 40.5415, 0.0 ], [ -111.0357, 40.5415, 0.0 ], [ -111.0355, 40.5414, 0.0 ], [ -111.0354, 40.5414, 0.0 ], [ -111.0352, 40.5414, 0.0 ], [ -111.035, 40.5414, 0.0 ], [ -111.0349, 40.5414, 0.0 ], [ -111.0348, 40.5413, 0.0 ], [ -111.0346, 40.5413, 0.0 ], [ -111.0344, 40.5412, 0.0 ], [ -111.0343, 40.5412, 0.0 ], [ -111.0342, 40.5412, 0.0 ], [ -111.034, 40.5411, 0.0 ], [ -111.0339, 40.5411, 0.0 ], [ -111.0338, 40.541, 0.0 ], [ -111.0336, 40.541, 0.0 ], [ -111.0333, 40.5409, 0.0 ], [ -111.0332, 40.5409, 0.0 ], [ -111.033, 40.541, 0.0 ], [ -111.0328, 40.541, 0.0 ], [ -111.0327, 40.541, 0.0 ], [ -111.0326, 40.541, 0.0 ], [ -111.0325, 40.541, 0.0 ], [ -111.0323, 40.541, 0.0 ], [ -111.0322, 40.541, 0.0 ], [ -111.0321, 40.541, 0.0 ], [ -111.0318, 40.5411, 0.0 ], [ -111.0317, 40.5411, 0.0 ], [ -111.0316, 40.5411, 0.0 ], [ -111.0314, 40.5411, 0.0 ], [ -111.0313, 40.5411, 0.0 ], [ -111.0311, 40.5411, 0.0 ], [ -111.031, 40.5411, 0.0 ], [ -111.0309, 40.5412, 0.0 ], [ -111.0308, 40.5412, 0.0 ], [ -111.0305, 40.5412, 0.0 ], [ -111.0303, 40.5412, 0.0 ], [ -111.0302, 40.5412, 0.0 ], [ -111.0299, 40.5413, 0.0 ], [ -111.0295, 40.5413, 0.0 ], [ -111.0294, 40.5413, 0.0 ], [ -111.0293, 40.5413, 0.0 ], [ -111.0292, 40.5413, 0.0 ], [ -111.0291, 40.5413, 0.0 ], [ -111.0289, 40.5414, 0.0 ], [ -111.0288, 40.5415, 0.0 ], [ -111.0288, 40.5416, 0.0 ], [ -111.0288, 40.5417, 0.0 ] ] ] } }

]
}
